<?xml version='1.0' encoding='UTF-8'?>
<!DOCTYPE svg PUBLIC '-//W3C//DTD SVG 1.1//EN' 'http://www.w3.org/Graphics/SVG/1.1/DTD/svg11.dtd'>
<svg id='svg' xmlns='http://www.w3.org/2000/svg' xmlns:xlink='http://www.w3.org/1999/xlink' onload='loadSVG();' >
<title>XsdVi</title>

<script type='text/ecmascript'><![CDATA[

  var efBoxes = [];
  var eSvg = null;

////////// loadSVG()
  function loadSVG() {
    efBoxes = getElementsByClassName('box', document.getElementsByTagName('g'));
    eSvg = document.getElementById('svg');
    expandAll();
  }

////////// getElementsByClassName(string, nodeList)
  function getElementsByClassName(sClass, nlNodes) {
    var elements = [];
    for (var i=0; i<nlNodes.length; i++) {
      if(nlNodes.item(i).nodeType==1 && sClass==nlNodes.item(i).getAttribute('class')) {
        elements.push(nlNodes.item(i));
      }
    }
    return elements;
  }

////////// show(string)
  function show(sId) {
    var useElement = document.getElementById('s'+sId);
    var moveNext = false;
    var eBoxLast;
    var maxX = 500;
    
    if (notPlus(useElement)) {
      eBoxLast = document.getElementById(sId);
      setPlus(useElement);
      for (var i=0; i<efBoxes.length; i++) {
        var eBox = efBoxes[i];
        if (moveNext) {
          move(eBoxLast, eBox);
        }
        else if (isDescendant(sId, eBox.id)) {
          eBox.setAttribute('visibility', 'hidden');
        }
        else if (isHigherBranch(sId, eBox.id)) {
          move(eBoxLast, eBox);
          moveNext = true;
        }
        if (eBox.getAttribute('visibility') != 'hidden') {
          eBoxLast = eBox;
          x = xTrans(eBox);
          if (x > maxX) maxX = x;
        }
      }
    }

    else {
      setMinus(useElement);
      var skipDescendantsOf;
      for (var i=0; i<efBoxes.length; i++) {
        var eBox = efBoxes[i];
        if (moveNext) {
          move(eBoxLast, eBox);
        }
        else if (isDescendant(sId, eBox.id) && (!skipDescendantsOf || !isDescendant(skipDescendantsOf.id, eBox.id))) {
          eBox.setAttribute('visibility', 'visible');
          move(eBoxLast, eBox);
          if (nextClosed(eBox)) skipDescendantsOf = eBox;
        }
        else if (isHigherBranch(sId, eBox.id)) {
          move(eBoxLast, eBox);
          moveNext = true;
        }
        if (eBox.getAttribute('visibility') != 'hidden') {
          eBoxLast = eBox;
          x = xTrans(eBox);
          if (x > maxX) maxX = x;
        }
      }
    }
    setHeight(yTrans(eBoxLast)+37);
    setWidth(maxX+400);
  }

////////// collapseAll()
  function collapseAll() {
    for (var i=0; i<efBoxes.length; i++) {
      var eBox = efBoxes[i];
      var useElement = document.getElementById('s'+eBox.id);
      if (useElement) setPlus(useElement);
      if (eBox.id != '_1') eBox.setAttribute('visibility', 'hidden');
    }
    setHeight(400);
    setWidth(500);
  }

////////// expandAll()
  function expandAll() {
    var eBoxLast;
    var maxX = 0;
    for (var i=0; i<efBoxes.length; i++) {
      var eBox = efBoxes[i];
      var useElement = document.getElementById('s'+eBox.id);
      if (useElement) setMinus(useElement);
      move(eBoxLast, eBox);
      eBox.setAttribute('visibility', 'visible');
      eBoxLast = eBox;
      var x = xTrans(eBox);
      if (x > maxX) maxX = x;
    }
    setHeight(yTrans(eBoxLast)+87);
    setWidth(maxX+400);
  }

////////// makeVisible(string)
  function makeVisible(sId) {
    var childNodes = document.getElementById(sId).childNodes;
    var hidden = getElementsByClassName('hidden', childNodes);
    var visible = getElementsByClassName('visible', childNodes);
    inheritVisibility(hidden);
    hiddenVisibility(visible);
  }

////////// makeHidden(string)
  function makeHidden(sId) {
    var childNodes = document.getElementById(sId).childNodes;
    var hidden = getElementsByClassName('hidden', childNodes);
    var visible = getElementsByClassName('visible', childNodes);
    inheritVisibility(visible);
    hiddenVisibility(hidden);
  }

////////// inheritVisibility(element[])
  function inheritVisibility(efElements) {
    for (var i=0; i<efElements.length; i++) {
      efElements[i].setAttribute('visibility', 'inherit');
    }
  }

////////// hiddenVisibility(element[])
  function hiddenVisibility(efElements) {
    for (var i=0; i<efElements.length; i++) {
      efElements[i].setAttribute('visibility', 'hidden');
    }
  }

////////// nextClosed(element)
  function nextClosed(eBox) {
    var useElement = document.getElementById('s'+eBox.id);
    return (useElement && !notPlus(useElement));
  }

////////// isHigherBranch(string, string)
  function isHigherBranch(sSerialLower, sSerialHigher) {
    var sLower = sSerialLower.split('_');
    var sHigher = sSerialHigher.split('_');
    for (var i=0; i<sLower.length; i++) {
      if (Number(sHigher[i]) > Number(sLower[i])) return true;
      else if (Number(sHigher[i]) < Number(sLower[i])) return false;
    }
    return false;
  }

////////// isOnHigherLevel(element, element)
  function isOnHigherLevel(eBoxLower, eBoxHigher) {
    var sLower = eBoxLower.id.split('_');
    var sHigher = eBoxHigher.id.split('_');
    for (var i=0; i<sLower.length; i++) {
      if (Number(sHigher[i]) > Number(sLower[i])) return true;
    }
    return false;
  }

////////// isDescendant(string, string)
  function isDescendant(sSerialAsc, sSerialDesc) {
    return (sSerialDesc.length > sSerialAsc.length && sSerialDesc.indexOf(sSerialAsc) === 0);
  }

////////// getParent(element)
  function getParent(eBox) {
    var serial = eBox.id.substring(0, eBox.id.lastIndexOf('_'));
    return document.getElementById(serial);
  }

////////// move(element, element)
  function move(eBoxLast, eBox) {
    /*if (!eBoxLast) return;
    if (isOnHigherLevel(eBoxLast, eBox)) {
      setYTrans(eBox, yTrans(eBoxLast)+37);
      var parent = getParent(eBox);
      var line = document.getElementById('p'+eBox.id);
      if (!parent || !line) return;
      line.setAttribute('y1', String(yTrans(parent)-yTrans(eBox)+17));
    }
    else {
      setYTrans(eBox, yTrans(eBoxLast));
    }*/
  }

////////// notPlus(element)
  function notPlus(eUseElement) {
    return (eUseElement.getAttributeNS('http://www.w3.org/1999/xlink', 'href') != '#plus');
  }

////////// setPlus(element)
  function setPlus(eUseElement) {
    eUseElement.setAttributeNS('http://www.w3.org/1999/xlink', 'href', '#plus');
  }

////////// setMinus(element)
  function setMinus(eUseElement) {
    eUseElement.setAttributeNS('http://www.w3.org/1999/xlink', 'href', '#minus');
  }

////////// setHeight(number)
  function setHeight(nHeight) {
    eSvg.setAttribute('height', nHeight);
  }

////////// setWidth(number)
  function setWidth(nWidth) {
    eSvg.setAttribute('width', nWidth);
  }

////////// xyTrans(element)
  function xTrans(eBox) {
    var transform = eBox.getAttribute('transform');
    var x = Number(transform.substring(10, Number(transform.length)-1).split(',')[0]);
    if(!x) x = 0;
    return x;
  }

////////// yTrans(element)
  function yTrans(eBox) {
    var transform = eBox.getAttribute('transform');
    var y = Number(transform.substring(10, Number(transform.length)-1).split(',')[1]);
    if(!y) y = 0;
    return y;
  }

////////// setYTrans(element, number)
  function setYTrans(eBox, nValue) {
    eBox.setAttribute('transform', 'translate('+xTrans(eBox)+','+nValue+')');
  }

]]></script>

<defs>
<style type='text/css'><![CDATA[
svg {pointer-events: none;}
text {font-family: arial; font-size: 11px;}
line, polyline, polygon {fill: none; stroke: black;}

.strong {font-size: 12px; font-weight: bold;}
.stronggreyitalic {font-size: 12px; font-weight: bold; fill: #AAAAAA;font-style: italic; }
.small {font-size: 10px;}
.big {font-size: 15px; fill: #882222;}
.biggrey {font-size: 13px; fill: #888888; font-weight: bold;}

.button {fill: white; stroke: black; pointer-events: all;}
.shadow {fill: #C0C0C0; stroke: none;}
.connection {fill: none; stroke: #666666;}
.empty {fill: none; stroke: black;}
.filled {fill: black; stroke: none;}

.boxelement, .boxany, .boxattribute1, .boxanyattribute {fill: #FFFFFF; stroke: #776633; pointer-events: all;}
.boxtypeelement {fill: #FFFFC0; stroke: #888888; pointer-events: all;}
.boxattribute2 {fill: #FFFFFF; stroke: #776633; pointer-events: all; stroke-dasharray: 4 4;}
.boxschema, .boxloop, .boxcompositor {fill: #E7EBF3; stroke: #666677;}
.boxselector, .boxfield, .boxidc {fill: #E0F7B7; stroke: #667733;}

.lax {fill: white; stroke: black;}
.skip {fill: #cc6666; stroke: black;}
.strict {fill: black; stroke: none;}

.border {fill: #f9f9f9; stroke: #dddddd;}
]]></style>
  <symbol class='button' id='plus'>
    <rect x='1' y='1' width='10' height='10'/>
    <line x1='3' y1='6' x2='9' y2='6'/>
    <line x1='6' y1='3' x2='6' y2='9'/>
  </symbol>
  <symbol class='button' id='minus'>
    <rect x='1' y='1' width='10' height='10'/>
    <line x1='3' y1='6' x2='9' y2='6'/>
  </symbol>

</defs>
<rect class='button' x='300' y='10' width='20' height='20' onclick='collapseAll()'/>
<line x1='303' y1='20' x2='317' y2='20'/>
<text x='330' y='20'>collapse all</text>
<rect class='button' x='400' y='10' width='20' height='20' onclick='expandAll()'/>
<line x1='403' y1='20' x2='417' y2='20'/>
<line x1='410' y1='13' x2='410' y2='27'/>
<text x='430' y='20'>expand all</text>

<g id='_1_1' class='box' transform='translate(45,534)'>
<rect class='shadow' x='5' y='10' width='153' height='22'/>
<rect class='boxelement' x='0.5' y='4.5' width='153' height='22'
onmouseover='makeVisible("_1_1")' onmouseout='makeHidden("_1_1")'/>
<text class='strong' x='5.5' y='20.5'>CreateEditViewRequest</text>
<use x='152.5' y='9.5' xlink:href='#minus' id='s_1_1' onclick='show("_1_1")'/>
</g>

<g id='_1_1_1tb' class='box' transform='translate(243, 103)'>
<rect class='boxtypeelement' x='-15.5' y='-40.5' width='1194' height='960' stroke-dasharray='17 6'/>
<text class='biggrey' x='-5.5' y='-25.5'>type: CreateEditViewRequest</text>
</g>
<g id='_1_1_1' class='box' transform='translate(243,534)'>
<rect class='boxcompositor' x='0.5' y='5.5' width='40' height='20' rx='9'/>
<circle cx='12.5' cy='15.5' r='3'/>
<circle cx='20.5' cy='15.5' r='3'/>
<circle cx='28.5' cy='15.5' r='3'/>
<line x1='4.5' y1='15.5' x2='36.5' y2='15.5'/>
<line class='connection' x1='-33.5' y1='15.5' x2='0.5' y2='15.5'/>
<use x='39.5' y='9.5' xlink:href='#minus' id='s_1_1_1' onclick='show("_1_1_1")'/>
</g>

<g id='_1_1_1_1' class='box' transform='translate(328,464)'>
<rect class='boxcompositor' x='0.5' y='5.5' width='40' height='20' rx='9'/>
<circle cx='12.5' cy='15.5' r='3'/>
<circle cx='20.5' cy='15.5' r='3'/>
<circle cx='28.5' cy='15.5' r='3'/>
<line x1='4.5' y1='15.5' x2='36.5' y2='15.5'/>
<line class='connection' x1='-33.5' y1='15.5' x2='0.5' y2='15.5'/>
<use x='39.5' y='9.5' xlink:href='#minus' id='s_1_1_1_1' onclick='show("_1_1_1_1")'/>
</g>

<g id='_1_1_1_1_1' class='box' transform='translate(413,464)'>
<rect class='shadow' x='5' y='10' width='105' height='22'/>
<rect class='boxelement' x='0.5' y='4.5' width='105' height='22'
onmouseover='makeVisible("_1_1_1_1_1")' onmouseout='makeHidden("_1_1_1_1_1")'/>
<text class='strong' x='5.5' y='20.5'>requestHeader</text>
<line class='connection' x1='-33.5' y1='15.5' x2='0.5' y2='15.5'/>
<use x='104.5' y='9.5' xlink:href='#minus' id='s_1_1_1_1_1' onclick='show("_1_1_1_1_1")'/>
</g>

<g id='_1_1_1_1_1_1tb' class='box' transform='translate(563, 103)'>
<rect class='boxtypeelement' x='-15.5' y='-20.5' width='864' height='780' stroke-dasharray='17 6'/>
<text class='biggrey' x='-5.5' y='-5.5'>type: RequestHeader</text>
</g>
<g id='_1_1_1_1_1_1' class='box' transform='translate(563,464)'>
<rect class='boxcompositor' x='0.5' y='5.5' width='40' height='20' rx='9'/>
<circle cx='12.5' cy='15.5' r='3'/>
<circle cx='20.5' cy='15.5' r='3'/>
<circle cx='28.5' cy='15.5' r='3'/>
<line x1='4.5' y1='15.5' x2='36.5' y2='15.5'/>
<line class='connection' x1='-33.5' y1='15.5' x2='0.5' y2='15.5'/>
<use x='39.5' y='9.5' xlink:href='#minus' id='s_1_1_1_1_1_1' onclick='show("_1_1_1_1_1_1")'/>
</g>

<g id='_1_1_1_1_1_1_1' class='box' transform='translate(648,405)'>
<rect class='boxcompositor' x='0.5' y='5.5' width='40' height='20' rx='9'/>
<circle cx='12.5' cy='15.5' r='3'/>
<circle cx='20.5' cy='15.5' r='3'/>
<circle cx='28.5' cy='15.5' r='3'/>
<line x1='4.5' y1='15.5' x2='36.5' y2='15.5'/>
<line class='connection' x1='-33.5' y1='15.5' x2='0.5' y2='15.5'/>
<use x='39.5' y='9.5' xlink:href='#minus' id='s_1_1_1_1_1_1_1' onclick='show("_1_1_1_1_1_1_1")'/>
</g>

<g id='_1_1_1_1_1_1_1_1' class='box' transform='translate(733,103)'>
<rect class='shadow' x='5' y='10' width='171' height='22'/>
<rect class='boxelement' x='0.5' y='4.5' width='171' height='22'
onmouseover='makeVisible("_1_1_1_1_1_1_1_1")' onmouseout='makeHidden("_1_1_1_1_1_1_1_1")'/>
<text class='strong' x='5.5' y='20.5'>messageId</text>
<text class='stronggreyitalic' x='74.5' y='20.5'>(type: string)</text>
<line class='connection' x1='-33.5' y1='15.5' x2='0.5' y2='15.5'/>
</g>

<g id='_1_1_1_1_1_1_1_2' class='box' transform='translate(733,140)'>
<rect class='shadow' x='5' y='10' width='183' height='22'/>
<rect class='boxelement' x='0.5' y='4.5' width='183' height='22'
onmouseover='makeVisible("_1_1_1_1_1_1_1_2")' onmouseout='makeHidden("_1_1_1_1_1_1_1_2")'/>
<text class='strong' x='5.5' y='20.5'>timestamp</text>
<text class='stronggreyitalic' x='74.5' y='20.5'>(type: dateTime)</text>
<line class='connection' x1='-33.5' y1='15.5' x2='0.5' y2='15.5'/>
</g>

<g id='_1_1_1_1_1_1_1_3' class='box' transform='translate(733,177)'>
<rect class='shadow' x='5' y='10' width='147' height='22'/>
<rect class='boxelement' x='0.5' y='4.5' width='147' height='22'
 stroke-dasharray="4 4"
onmouseover='makeVisible("_1_1_1_1_1_1_1_3")' onmouseout='makeHidden("_1_1_1_1_1_1_1_3")'/>
<text class='strong' x='5.5' y='20.5'>priority</text>
<text class='stronggreyitalic' x='68.5' y='20.5'>(type: int)</text>
<line class='connection' x1='-33.5' y1='15.5' x2='0.5' y2='15.5'/>
</g>

<g id='_1_1_1_1_1_1_1_4' class='box' transform='translate(733,214)'>
<rect class='shadow' x='5' y='10' width='195' height='22'/>
<rect class='boxelement' x='0.5' y='4.5' width='195' height='22'
 stroke-dasharray="4 4"
onmouseover='makeVisible("_1_1_1_1_1_1_1_4")' onmouseout='makeHidden("_1_1_1_1_1_1_1_4")'/>
<text class='strong' x='5.5' y='20.5'>correlationId</text>
<text class='stronggreyitalic' x='98.5' y='20.5'>(type: string)</text>
<line class='connection' x1='-33.5' y1='15.5' x2='0.5' y2='15.5'/>
</g>

<g id='_1_1_1_1_1_1_1_5' class='box' transform='translate(733,431)'>
<rect class='shadow' x='5' y='10' width='99' height='22'/>
<rect class='boxelement' x='0.5' y='4.5' width='99' height='22'
 stroke-dasharray="4 4"
onmouseover='makeVisible("_1_1_1_1_1_1_1_5")' onmouseout='makeHidden("_1_1_1_1_1_1_1_5")'/>
<text class='strong' x='5.5' y='20.5'>trackingInfo</text>
<line class='connection' x1='-33.5' y1='15.5' x2='0.5' y2='15.5'/>
<use x='98.5' y='9.5' xlink:href='#minus' id='s_1_1_1_1_1_1_1_5' onclick='show("_1_1_1_1_1_1_1_5")'/>
</g>

<g id='_1_1_1_1_1_1_1_5_1tb' class='box' transform='translate(877, 295)'>
<rect class='boxtypeelement' x='-15.5' y='-40.5' width='540' height='370' stroke-dasharray='17 6'/>
<text class='biggrey' x='-5.5' y='-25.5'>type: TrackingInfo</text>
</g>
<g id='_1_1_1_1_1_1_1_5_1' class='box' transform='translate(877,431)'>
<rect class='boxcompositor' x='0.5' y='5.5' width='40' height='20' rx='9'/>
<circle cx='12.5' cy='15.5' r='3'/>
<circle cx='20.5' cy='15.5' r='3'/>
<circle cx='28.5' cy='15.5' r='3'/>
<line x1='4.5' y1='15.5' x2='36.5' y2='15.5'/>
<line class='connection' x1='-33.5' y1='15.5' x2='0.5' y2='15.5'/>
<use x='39.5' y='9.5' xlink:href='#minus' id='s_1_1_1_1_1_1_1_5_1' onclick='show("_1_1_1_1_1_1_1_5_1")'/>
</g>

<g id='_1_1_1_1_1_1_1_5_1_1' class='box' transform='translate(962,313)'>
<rect class='shadow' x='5' y='10' width='87' height='22'/>
<rect class='boxelement' x='0.5' y='4.5' width='87' height='22'
 stroke-dasharray="4 4"
onmouseover='makeVisible("_1_1_1_1_1_1_1_5_1_1")' onmouseout='makeHidden("_1_1_1_1_1_1_1_5_1_1")'/>
<text class='strong' x='5.5' y='20.5'>businessId</text>
<line class='connection' x1='-33.5' y1='15.5' x2='0.5' y2='15.5'/>
<use x='86.5' y='9.5' xlink:href='#minus' id='s_1_1_1_1_1_1_1_5_1_1' onclick='show("_1_1_1_1_1_1_1_5_1_1")'/>
</g>

<g id='_1_1_1_1_1_1_1_5_1_1_1tb' class='box' transform='translate(1094, 295)'>
<rect class='boxtypeelement' x='-15.5' y='-20.5' width='289' height='94' stroke-dasharray='17 6'/>
<text class='biggrey' x='-5.5' y='-5.5'>type: TrackingIInfoDetail</text>
</g>
<g id='_1_1_1_1_1_1_1_5_1_1_1' class='box' transform='translate(1094,313)'>
<rect class='boxcompositor' x='0.5' y='5.5' width='40' height='20' rx='9'/>
<circle cx='12.5' cy='15.5' r='3'/>
<circle cx='20.5' cy='15.5' r='3'/>
<circle cx='28.5' cy='15.5' r='3'/>
<line x1='4.5' y1='15.5' x2='36.5' y2='15.5'/>
<line class='connection' x1='-33.5' y1='15.5' x2='0.5' y2='15.5'/>
<use x='39.5' y='9.5' xlink:href='#minus' id='s_1_1_1_1_1_1_1_5_1_1_1' onclick='show("_1_1_1_1_1_1_1_5_1_1_1")'/>
</g>

<g id='_1_1_1_1_1_1_1_5_1_1_1_1' class='box' transform='translate(1179,295)'>
<rect class='shadow' x='5' y='10' width='147' height='22'/>
<rect class='boxelement' x='0.5' y='4.5' width='147' height='22'
onmouseover='makeVisible("_1_1_1_1_1_1_1_5_1_1_1_1")' onmouseout='makeHidden("_1_1_1_1_1_1_1_5_1_1_1_1")'/>
<text class='strong' x='5.5' y='20.5'>value</text>
<text class='stronggreyitalic' x='50.5' y='20.5'>(type: string)</text>
<line class='connection' x1='-33.5' y1='15.5' x2='0.5' y2='15.5'/>
</g>

<g id='_1_1_1_1_1_1_1_5_1_1_1_2' class='box' transform='translate(1179,332)'>
<rect class='shadow' x='5' y='10' width='159' height='22'/>
<rect class='boxelement' x='0.5' y='4.5' width='159' height='22'
 stroke-dasharray="4 4"
onmouseover='makeVisible("_1_1_1_1_1_1_1_5_1_1_1_2")' onmouseout='makeHidden("_1_1_1_1_1_1_1_5_1_1_1_2")'/>
<text class='strong' x='5.5' y='20.5'>meaning</text>
<text class='stronggreyitalic' x='62.5' y='20.5'>(type: string)</text>
<line class='connection' id='p_1_1_1_1_1_1_1_5_1_1_1_2' x1='-33.5' y1='-21.5' x2='-33.5' y2='15.5'/>
<path class='connection' d='M-33.5,15.5 L0.5, 15.5'/>
</g>

<g id='_1_1_1_1_1_1_1_5_1_2' class='box' transform='translate(962,431)'>
<rect class='shadow' x='5' y='10' width='111' height='22'/>
<rect class='boxelement' x='0.5' y='4.5' width='111' height='22'
 stroke-dasharray="4 4"
onmouseover='makeVisible("_1_1_1_1_1_1_1_5_1_2")' onmouseout='makeHidden("_1_1_1_1_1_1_1_5_1_2")'/>
<text class='strong' x='5.5' y='20.5'>conversationId</text>
<line class='connection' x1='-33.5' y1='15.5' x2='0.5' y2='15.5'/>
<use x='110.5' y='9.5' xlink:href='#minus' id='s_1_1_1_1_1_1_1_5_1_2' onclick='show("_1_1_1_1_1_1_1_5_1_2")'/>
</g>

<g id='_1_1_1_1_1_1_1_5_1_2_1tb' class='box' transform='translate(1118, 413)'>
<rect class='boxtypeelement' x='-15.5' y='-20.5' width='289' height='94' stroke-dasharray='17 6'/>
<text class='biggrey' x='-5.5' y='-5.5'>type: TrackingIInfoDetail</text>
</g>
<g id='_1_1_1_1_1_1_1_5_1_2_1' class='box' transform='translate(1118,431)'>
<rect class='boxcompositor' x='0.5' y='5.5' width='40' height='20' rx='9'/>
<circle cx='12.5' cy='15.5' r='3'/>
<circle cx='20.5' cy='15.5' r='3'/>
<circle cx='28.5' cy='15.5' r='3'/>
<line x1='4.5' y1='15.5' x2='36.5' y2='15.5'/>
<line class='connection' x1='-33.5' y1='15.5' x2='0.5' y2='15.5'/>
<use x='39.5' y='9.5' xlink:href='#minus' id='s_1_1_1_1_1_1_1_5_1_2_1' onclick='show("_1_1_1_1_1_1_1_5_1_2_1")'/>
</g>

<g id='_1_1_1_1_1_1_1_5_1_2_1_1' class='box' transform='translate(1203,413)'>
<rect class='shadow' x='5' y='10' width='147' height='22'/>
<rect class='boxelement' x='0.5' y='4.5' width='147' height='22'
onmouseover='makeVisible("_1_1_1_1_1_1_1_5_1_2_1_1")' onmouseout='makeHidden("_1_1_1_1_1_1_1_5_1_2_1_1")'/>
<text class='strong' x='5.5' y='20.5'>value</text>
<text class='stronggreyitalic' x='50.5' y='20.5'>(type: string)</text>
<line class='connection' x1='-33.5' y1='15.5' x2='0.5' y2='15.5'/>
</g>

<g id='_1_1_1_1_1_1_1_5_1_2_1_2' class='box' transform='translate(1203,450)'>
<rect class='shadow' x='5' y='10' width='159' height='22'/>
<rect class='boxelement' x='0.5' y='4.5' width='159' height='22'
 stroke-dasharray="4 4"
onmouseover='makeVisible("_1_1_1_1_1_1_1_5_1_2_1_2")' onmouseout='makeHidden("_1_1_1_1_1_1_1_5_1_2_1_2")'/>
<text class='strong' x='5.5' y='20.5'>meaning</text>
<text class='stronggreyitalic' x='62.5' y='20.5'>(type: string)</text>
<line class='connection' id='p_1_1_1_1_1_1_1_5_1_2_1_2' x1='-33.5' y1='-21.5' x2='-33.5' y2='15.5'/>
<path class='connection' d='M-33.5,15.5 L0.5, 15.5'/>
</g>

<g id='_1_1_1_1_1_1_1_5_1_3' class='box' transform='translate(962,549)'>
<rect class='shadow' x='5' y='10' width='63' height='22'/>
<rect class='boxelement' x='0.5' y='4.5' width='63' height='22'
 stroke-dasharray="4 4"
onmouseover='makeVisible("_1_1_1_1_1_1_1_5_1_3")' onmouseout='makeHidden("_1_1_1_1_1_1_1_5_1_3")'/>
<text class='strong' x='5.5' y='20.5'>userId</text>
<line class='connection' id='p_1_1_1_1_1_1_1_5_1_3' x1='-33.5' y1='-220.5' x2='-33.5' y2='15.5'/>
<path class='connection' d='M-33.5,15.5 L0.5, 15.5'/>
<use x='62.5' y='9.5' xlink:href='#minus' id='s_1_1_1_1_1_1_1_5_1_3' onclick='show("_1_1_1_1_1_1_1_5_1_3")'/>
</g>

<g id='_1_1_1_1_1_1_1_5_1_3_1tb' class='box' transform='translate(1070, 531)'>
<rect class='boxtypeelement' x='-15.5' y='-20.5' width='289' height='94' stroke-dasharray='17 6'/>
<text class='biggrey' x='-5.5' y='-5.5'>type: TrackingIInfoDetail</text>
</g>
<g id='_1_1_1_1_1_1_1_5_1_3_1' class='box' transform='translate(1070,549)'>
<rect class='boxcompositor' x='0.5' y='5.5' width='40' height='20' rx='9'/>
<circle cx='12.5' cy='15.5' r='3'/>
<circle cx='20.5' cy='15.5' r='3'/>
<circle cx='28.5' cy='15.5' r='3'/>
<line x1='4.5' y1='15.5' x2='36.5' y2='15.5'/>
<line class='connection' x1='-33.5' y1='15.5' x2='0.5' y2='15.5'/>
<use x='39.5' y='9.5' xlink:href='#minus' id='s_1_1_1_1_1_1_1_5_1_3_1' onclick='show("_1_1_1_1_1_1_1_5_1_3_1")'/>
</g>

<g id='_1_1_1_1_1_1_1_5_1_3_1_1' class='box' transform='translate(1155,531)'>
<rect class='shadow' x='5' y='10' width='147' height='22'/>
<rect class='boxelement' x='0.5' y='4.5' width='147' height='22'
onmouseover='makeVisible("_1_1_1_1_1_1_1_5_1_3_1_1")' onmouseout='makeHidden("_1_1_1_1_1_1_1_5_1_3_1_1")'/>
<text class='strong' x='5.5' y='20.5'>value</text>
<text class='stronggreyitalic' x='50.5' y='20.5'>(type: string)</text>
<line class='connection' x1='-33.5' y1='15.5' x2='0.5' y2='15.5'/>
</g>

<g id='_1_1_1_1_1_1_1_5_1_3_1_2' class='box' transform='translate(1155,568)'>
<rect class='shadow' x='5' y='10' width='159' height='22'/>
<rect class='boxelement' x='0.5' y='4.5' width='159' height='22'
 stroke-dasharray="4 4"
onmouseover='makeVisible("_1_1_1_1_1_1_1_5_1_3_1_2")' onmouseout='makeHidden("_1_1_1_1_1_1_1_5_1_3_1_2")'/>
<text class='strong' x='5.5' y='20.5'>meaning</text>
<text class='stronggreyitalic' x='62.5' y='20.5'>(type: string)</text>
<line class='connection' id='p_1_1_1_1_1_1_1_5_1_3_1_2' x1='-33.5' y1='-21.5' x2='-33.5' y2='15.5'/>
<path class='connection' d='M-33.5,15.5 L0.5, 15.5'/>
</g>

<g id='_1_1_1_1_1_1_1_6' class='box' transform='translate(733,689)'>
<rect class='shadow' x='5' y='10' width='87' height='22'/>
<rect class='boxelement' x='0.5' y='4.5' width='87' height='22'
 stroke-dasharray="4 4"
onmouseover='makeVisible("_1_1_1_1_1_1_1_6")' onmouseout='makeHidden("_1_1_1_1_1_1_1_6")'/>
<text class='strong' x='5.5' y='20.5'>properties</text>
<line class='connection' id='p_1_1_1_1_1_1_1_6' x1='-33.5' y1='-570.5' x2='-33.5' y2='15.5'/>
<path class='connection' d='M-33.5,15.5 L0.5, 15.5'/>
<use x='86.5' y='9.5' xlink:href='#minus' id='s_1_1_1_1_1_1_1_6' onclick='show("_1_1_1_1_1_1_1_6")'/>
</g>

<g id='_1_1_1_1_1_1_1_6_1tb' class='box' transform='translate(865, 671)'>
<rect class='boxtypeelement' x='-15.5' y='-40.5' width='492' height='134' stroke-dasharray='17 6'/>
<text class='biggrey' x='-5.5' y='-25.5'>type: Properties</text>
</g>
<g id='_1_1_1_1_1_1_1_6_1' class='box' transform='translate(865,689)'>
<rect class='boxcompositor' x='0.5' y='5.5' width='40' height='20' rx='9'/>
<circle cx='12.5' cy='15.5' r='3'/>
<circle cx='20.5' cy='15.5' r='3'/>
<circle cx='28.5' cy='15.5' r='3'/>
<line x1='4.5' y1='15.5' x2='36.5' y2='15.5'/>
<line class='connection' x1='-33.5' y1='15.5' x2='0.5' y2='15.5'/>
<use x='39.5' y='9.5' xlink:href='#minus' id='s_1_1_1_1_1_1_1_6_1' onclick='show("_1_1_1_1_1_1_1_6_1")'/>
</g>

<g id='_1_1_1_1_1_1_1_6_1_1' class='box' transform='translate(950,689)'>
<rect class='shadow' x='5' y='10' width='75' height='22'/>
<rect class='boxelement' x='0.5' y='4.5' width='75' height='22'
onmouseover='makeVisible("_1_1_1_1_1_1_1_6_1_1")' onmouseout='makeHidden("_1_1_1_1_1_1_1_6_1_1")'/>
<text class='strong' x='5.5' y='20.5'>property</text>
<text x='50.5' y='45.5'>1..∞</text>
<line class='connection' x1='-33.5' y1='15.5' x2='0.5' y2='15.5'/>
<use x='74.5' y='9.5' xlink:href='#minus' id='s_1_1_1_1_1_1_1_6_1_1' onclick='show("_1_1_1_1_1_1_1_6_1_1")'/>
</g>

<g id='_1_1_1_1_1_1_1_6_1_1_1tb' class='box' transform='translate(1070, 671)'>
<rect class='boxtypeelement' x='-15.5' y='-20.5' width='277' height='94' stroke-dasharray='17 6'/>
<text class='biggrey' x='-5.5' y='-5.5'>type: Property</text>
</g>
<g id='_1_1_1_1_1_1_1_6_1_1_1' class='box' transform='translate(1070,689)'>
<rect class='boxcompositor' x='0.5' y='5.5' width='40' height='20' rx='9'/>
<circle cx='12.5' cy='15.5' r='3'/>
<circle cx='20.5' cy='15.5' r='3'/>
<circle cx='28.5' cy='15.5' r='3'/>
<line x1='4.5' y1='15.5' x2='36.5' y2='15.5'/>
<line class='connection' x1='-33.5' y1='15.5' x2='0.5' y2='15.5'/>
<use x='39.5' y='9.5' xlink:href='#minus' id='s_1_1_1_1_1_1_1_6_1_1_1' onclick='show("_1_1_1_1_1_1_1_6_1_1_1")'/>
</g>

<g id='_1_1_1_1_1_1_1_6_1_1_1_1' class='box' transform='translate(1155,671)'>
<rect class='shadow' x='5' y='10' width='141' height='22'/>
<rect class='boxelement' x='0.5' y='4.5' width='141' height='22'
onmouseover='makeVisible("_1_1_1_1_1_1_1_6_1_1_1_1")' onmouseout='makeHidden("_1_1_1_1_1_1_1_6_1_1_1_1")'/>
<text class='strong' x='5.5' y='20.5'>name</text>
<text class='stronggreyitalic' x='44.5' y='20.5'>(type: string)</text>
<line class='connection' x1='-33.5' y1='15.5' x2='0.5' y2='15.5'/>
</g>

<g id='_1_1_1_1_1_1_1_6_1_1_1_2' class='box' transform='translate(1155,708)'>
<rect class='shadow' x='5' y='10' width='147' height='22'/>
<rect class='boxelement' x='0.5' y='4.5' width='147' height='22'
 stroke-dasharray="4 4"
onmouseover='makeVisible("_1_1_1_1_1_1_1_6_1_1_1_2")' onmouseout='makeHidden("_1_1_1_1_1_1_1_6_1_1_1_2")'/>
<text class='strong' x='5.5' y='20.5'>value</text>
<text class='stronggreyitalic' x='50.5' y='20.5'>(type: string)</text>
<line class='connection' id='p_1_1_1_1_1_1_1_6_1_1_1_2' x1='-33.5' y1='-21.5' x2='-33.5' y2='15.5'/>
<path class='connection' d='M-33.5,15.5 L0.5, 15.5'/>
</g>

<g id='_1_1_1_1_1_1_2' class='box' transform='translate(648,807)'>
<rect class='boxcompositor' x='0.5' y='5.5' width='40' height='20' rx='9'/>
<circle cx='12.5' cy='15.5' r='3'/>
<circle cx='20.5' cy='15.5' r='3'/>
<circle cx='28.5' cy='15.5' r='3'/>
<line x1='4.5' y1='15.5' x2='36.5' y2='15.5'/>
<line class='connection' id='p_1_1_1_1_1_1_2' x1='-33.5' y1='-386.5' x2='-33.5' y2='15.5'/>
<path class='connection' d='M-33.5,15.5 L0.5, 15.5'/>
<use x='39.5' y='9.5' xlink:href='#minus' id='s_1_1_1_1_1_1_2' onclick='show("_1_1_1_1_1_1_2")'/>
</g>

<g id='_1_1_1_1_1_1_2_1' class='box' transform='translate(733,789)'>
<rect class='shadow' x='5' y='10' width='249' height='22'/>
<rect class='boxelement' x='0.5' y='4.5' width='249' height='22'
onmouseover='makeVisible("_1_1_1_1_1_1_2_1")' onmouseout='makeHidden("_1_1_1_1_1_1_2_1")'/>
<text class='strong' x='5.5' y='20.5'>consumerIdentification</text>
<text class='stronggreyitalic' x='152.5' y='20.5'>(type: string)</text>
<line class='connection' x1='-33.5' y1='15.5' x2='0.5' y2='15.5'/>
</g>

<g id='_1_1_1_1_1_1_2_2' class='box' transform='translate(733,826)'>
<rect class='shadow' x='5' y='10' width='249' height='22'/>
<rect class='boxelement' x='0.5' y='4.5' width='249' height='22'
 stroke-dasharray="4 4"
onmouseover='makeVisible("_1_1_1_1_1_1_2_2")' onmouseout='makeHidden("_1_1_1_1_1_1_2_2")'/>
<text class='strong' x='5.5' y='20.5'>providerIdentification</text>
<text class='stronggreyitalic' x='152.5' y='20.5'>(type: string)</text>
<line class='connection' id='p_1_1_1_1_1_1_2_2' x1='-33.5' y1='-21.5' x2='-33.5' y2='15.5'/>
<path class='connection' d='M-33.5,15.5 L0.5, 15.5'/>
</g>

<g id='_1_1_1_2' class='box' transform='translate(328,947)'>
<rect class='boxcompositor' x='0.5' y='5.5' width='40' height='20' rx='9'/>
<circle cx='12.5' cy='15.5' r='3'/>
<circle cx='20.5' cy='15.5' r='3'/>
<circle cx='28.5' cy='15.5' r='3'/>
<line x1='4.5' y1='15.5' x2='36.5' y2='15.5'/>
<line class='connection' id='p_1_1_1_2' x1='-33.5' y1='-467.5' x2='-33.5' y2='15.5'/>
<path class='connection' d='M-33.5,15.5 L0.5, 15.5'/>
<use x='39.5' y='9.5' xlink:href='#minus' id='s_1_1_1_2' onclick='show("_1_1_1_2")'/>
</g>

<g id='_1_1_1_2_1' class='box' transform='translate(413,947)'>
<rect class='shadow' x='5' y='10' width='93' height='22'/>
<rect class='boxelement' x='0.5' y='4.5' width='93' height='22'
onmouseover='makeVisible("_1_1_1_2_1")' onmouseout='makeHidden("_1_1_1_2_1")'/>
<text class='strong' x='5.5' y='20.5'>requestBody</text>
<line class='connection' x1='-33.5' y1='15.5' x2='0.5' y2='15.5'/>
<use x='92.5' y='9.5' xlink:href='#minus' id='s_1_1_1_2_1' onclick='show("_1_1_1_2_1")'/>
</g>

<g id='_1_1_1_2_1_1tb' class='box' transform='translate(551, 929)'>
<rect class='boxtypeelement' x='-15.5' y='-20.5' width='319' height='94' stroke-dasharray='17 6'/>
<text class='biggrey' x='-5.5' y='-5.5'>type: CreateEditViewRequestBody</text>
</g>
<g id='_1_1_1_2_1_1' class='box' transform='translate(551,947)'>
<rect class='boxcompositor' x='0.5' y='5.5' width='40' height='20' rx='9'/>
<circle cx='12.5' cy='15.5' r='3'/>
<circle cx='20.5' cy='15.5' r='3'/>
<circle cx='28.5' cy='15.5' r='3'/>
<line x1='4.5' y1='15.5' x2='36.5' y2='15.5'/>
<line class='connection' x1='-33.5' y1='15.5' x2='0.5' y2='15.5'/>
<use x='39.5' y='9.5' xlink:href='#minus' id='s_1_1_1_2_1_1' onclick='show("_1_1_1_2_1_1")'/>
</g>

<g id='_1_1_1_2_1_1_1' class='box' transform='translate(636,929)'>
<rect class='shadow' x='5' y='10' width='177' height='22'/>
<rect class='boxelement' x='0.5' y='4.5' width='177' height='22'
onmouseover='makeVisible("_1_1_1_2_1_1_1")' onmouseout='makeHidden("_1_1_1_2_1_1_1")'/>
<text class='strong' x='5.5' y='20.5'>envelopeId</text>
<text class='stronggreyitalic' x='80.5' y='20.5'>(type: string)</text>
<line class='connection' x1='-33.5' y1='15.5' x2='0.5' y2='15.5'/>
</g>

<g id='_1_1_1_2_1_1_2' class='box' transform='translate(636,966)'>
<rect class='shadow' x='5' y='10' width='189' height='22'/>
<rect class='boxelement' x='0.5' y='4.5' width='189' height='22'
 stroke-dasharray="4 4"
onmouseover='makeVisible("_1_1_1_2_1_1_2")' onmouseout='makeHidden("_1_1_1_2_1_1_2")'/>
<text class='strong' x='5.5' y='20.5'>returnUrl</text>
<text class='stronggreyitalic' x='74.5' y='20.5'>(type: String470)</text>
<line class='connection' id='p_1_1_1_2_1_1_2' x1='-33.5' y1='-21.5' x2='-33.5' y2='15.5'/>
<path class='connection' d='M-33.5,15.5 L0.5, 15.5'/>
</g>


</svg>
