<?xml version='1.0' encoding='UTF-8'?>
<!DOCTYPE svg PUBLIC '-//W3C//DTD SVG 1.1//EN' 'http://www.w3.org/Graphics/SVG/1.1/DTD/svg11.dtd'>
<svg id='svg' xmlns='http://www.w3.org/2000/svg' xmlns:xlink='http://www.w3.org/1999/xlink' onload='loadSVG();' >
<title>XsdVi</title>

<script type='text/ecmascript'><![CDATA[

  var efBoxes = [];
  var eSvg = null;

////////// loadSVG()
  function loadSVG() {
    efBoxes = getElementsByClassName('box', document.getElementsByTagName('g'));
    eSvg = document.getElementById('svg');
    expandAll();
  }

////////// getElementsByClassName(string, nodeList)
  function getElementsByClassName(sClass, nlNodes) {
    var elements = [];
    for (var i=0; i<nlNodes.length; i++) {
      if(nlNodes.item(i).nodeType==1 && sClass==nlNodes.item(i).getAttribute('class')) {
        elements.push(nlNodes.item(i));
      }
    }
    return elements;
  }

////////// show(string)
  function show(sId) {
    var useElement = document.getElementById('s'+sId);
    var moveNext = false;
    var eBoxLast;
    var maxX = 500;
    
    if (notPlus(useElement)) {
      eBoxLast = document.getElementById(sId);
      setPlus(useElement);
      for (var i=0; i<efBoxes.length; i++) {
        var eBox = efBoxes[i];
        if (moveNext) {
          move(eBoxLast, eBox);
        }
        else if (isDescendant(sId, eBox.id)) {
          eBox.setAttribute('visibility', 'hidden');
        }
        else if (isHigherBranch(sId, eBox.id)) {
          move(eBoxLast, eBox);
          moveNext = true;
        }
        if (eBox.getAttribute('visibility') != 'hidden') {
          eBoxLast = eBox;
          x = xTrans(eBox);
          if (x > maxX) maxX = x;
        }
      }
    }

    else {
      setMinus(useElement);
      var skipDescendantsOf;
      for (var i=0; i<efBoxes.length; i++) {
        var eBox = efBoxes[i];
        if (moveNext) {
          move(eBoxLast, eBox);
        }
        else if (isDescendant(sId, eBox.id) && (!skipDescendantsOf || !isDescendant(skipDescendantsOf.id, eBox.id))) {
          eBox.setAttribute('visibility', 'visible');
          move(eBoxLast, eBox);
          if (nextClosed(eBox)) skipDescendantsOf = eBox;
        }
        else if (isHigherBranch(sId, eBox.id)) {
          move(eBoxLast, eBox);
          moveNext = true;
        }
        if (eBox.getAttribute('visibility') != 'hidden') {
          eBoxLast = eBox;
          x = xTrans(eBox);
          if (x > maxX) maxX = x;
        }
      }
    }
    setHeight(yTrans(eBoxLast)+37);
    setWidth(maxX+400);
  }

////////// collapseAll()
  function collapseAll() {
    for (var i=0; i<efBoxes.length; i++) {
      var eBox = efBoxes[i];
      var useElement = document.getElementById('s'+eBox.id);
      if (useElement) setPlus(useElement);
      if (eBox.id != '_1') eBox.setAttribute('visibility', 'hidden');
    }
    setHeight(400);
    setWidth(500);
  }

////////// expandAll()
  function expandAll() {
    var eBoxLast;
    var maxX = 0;
    for (var i=0; i<efBoxes.length; i++) {
      var eBox = efBoxes[i];
      var useElement = document.getElementById('s'+eBox.id);
      if (useElement) setMinus(useElement);
      move(eBoxLast, eBox);
      eBox.setAttribute('visibility', 'visible');
      eBoxLast = eBox;
      var x = xTrans(eBox);
      if (x > maxX) maxX = x;
    }
    setHeight(yTrans(eBoxLast)+87);
    setWidth(maxX+400);
  }

////////// makeVisible(string)
  function makeVisible(sId) {
    var childNodes = document.getElementById(sId).childNodes;
    var hidden = getElementsByClassName('hidden', childNodes);
    var visible = getElementsByClassName('visible', childNodes);
    inheritVisibility(hidden);
    hiddenVisibility(visible);
  }

////////// makeHidden(string)
  function makeHidden(sId) {
    var childNodes = document.getElementById(sId).childNodes;
    var hidden = getElementsByClassName('hidden', childNodes);
    var visible = getElementsByClassName('visible', childNodes);
    inheritVisibility(visible);
    hiddenVisibility(hidden);
  }

////////// inheritVisibility(element[])
  function inheritVisibility(efElements) {
    for (var i=0; i<efElements.length; i++) {
      efElements[i].setAttribute('visibility', 'inherit');
    }
  }

////////// hiddenVisibility(element[])
  function hiddenVisibility(efElements) {
    for (var i=0; i<efElements.length; i++) {
      efElements[i].setAttribute('visibility', 'hidden');
    }
  }

////////// nextClosed(element)
  function nextClosed(eBox) {
    var useElement = document.getElementById('s'+eBox.id);
    return (useElement && !notPlus(useElement));
  }

////////// isHigherBranch(string, string)
  function isHigherBranch(sSerialLower, sSerialHigher) {
    var sLower = sSerialLower.split('_');
    var sHigher = sSerialHigher.split('_');
    for (var i=0; i<sLower.length; i++) {
      if (Number(sHigher[i]) > Number(sLower[i])) return true;
      else if (Number(sHigher[i]) < Number(sLower[i])) return false;
    }
    return false;
  }

////////// isOnHigherLevel(element, element)
  function isOnHigherLevel(eBoxLower, eBoxHigher) {
    var sLower = eBoxLower.id.split('_');
    var sHigher = eBoxHigher.id.split('_');
    for (var i=0; i<sLower.length; i++) {
      if (Number(sHigher[i]) > Number(sLower[i])) return true;
    }
    return false;
  }

////////// isDescendant(string, string)
  function isDescendant(sSerialAsc, sSerialDesc) {
    return (sSerialDesc.length > sSerialAsc.length && sSerialDesc.indexOf(sSerialAsc) === 0);
  }

////////// getParent(element)
  function getParent(eBox) {
    var serial = eBox.id.substring(0, eBox.id.lastIndexOf('_'));
    return document.getElementById(serial);
  }

////////// move(element, element)
  function move(eBoxLast, eBox) {
    /*if (!eBoxLast) return;
    if (isOnHigherLevel(eBoxLast, eBox)) {
      setYTrans(eBox, yTrans(eBoxLast)+37);
      var parent = getParent(eBox);
      var line = document.getElementById('p'+eBox.id);
      if (!parent || !line) return;
      line.setAttribute('y1', String(yTrans(parent)-yTrans(eBox)+17));
    }
    else {
      setYTrans(eBox, yTrans(eBoxLast));
    }*/
  }

////////// notPlus(element)
  function notPlus(eUseElement) {
    return (eUseElement.getAttributeNS('http://www.w3.org/1999/xlink', 'href') != '#plus');
  }

////////// setPlus(element)
  function setPlus(eUseElement) {
    eUseElement.setAttributeNS('http://www.w3.org/1999/xlink', 'href', '#plus');
  }

////////// setMinus(element)
  function setMinus(eUseElement) {
    eUseElement.setAttributeNS('http://www.w3.org/1999/xlink', 'href', '#minus');
  }

////////// setHeight(number)
  function setHeight(nHeight) {
    eSvg.setAttribute('height', nHeight);
  }

////////// setWidth(number)
  function setWidth(nWidth) {
    eSvg.setAttribute('width', nWidth);
  }

////////// xyTrans(element)
  function xTrans(eBox) {
    var transform = eBox.getAttribute('transform');
    var x = Number(transform.substring(10, Number(transform.length)-1).split(',')[0]);
    if(!x) x = 0;
    return x;
  }

////////// yTrans(element)
  function yTrans(eBox) {
    var transform = eBox.getAttribute('transform');
    var y = Number(transform.substring(10, Number(transform.length)-1).split(',')[1]);
    if(!y) y = 0;
    return y;
  }

////////// setYTrans(element, number)
  function setYTrans(eBox, nValue) {
    eBox.setAttribute('transform', 'translate('+xTrans(eBox)+','+nValue+')');
  }

]]></script>

<defs>
<style type='text/css'><![CDATA[
svg {pointer-events: none;}
text {font-family: arial; font-size: 11px;}
line, polyline, polygon {fill: none; stroke: black;}

.strong {font-size: 12px; font-weight: bold;}
.stronggreyitalic {font-size: 12px; font-weight: bold; fill: #AAAAAA;font-style: italic; }
.small {font-size: 10px;}
.big {font-size: 15px; fill: #882222;}
.biggrey {font-size: 13px; fill: #888888; font-weight: bold;}

.button {fill: white; stroke: black; pointer-events: all;}
.shadow {fill: #C0C0C0; stroke: none;}
.connection {fill: none; stroke: #666666;}
.empty {fill: none; stroke: black;}
.filled {fill: black; stroke: none;}

.boxelement, .boxany, .boxattribute1, .boxanyattribute {fill: #FFFFFF; stroke: #776633; pointer-events: all;}
.boxtypeelement {fill: #FFFFC0; stroke: #888888; pointer-events: all;}
.boxattribute2 {fill: #FFFFFF; stroke: #776633; pointer-events: all; stroke-dasharray: 4 4;}
.boxschema, .boxloop, .boxcompositor {fill: #E7EBF3; stroke: #666677;}
.boxselector, .boxfield, .boxidc {fill: #E0F7B7; stroke: #667733;}

.lax {fill: white; stroke: black;}
.skip {fill: #cc6666; stroke: black;}
.strict {fill: black; stroke: none;}

.border {fill: #f9f9f9; stroke: #dddddd;}
]]></style>
  <symbol class='button' id='plus'>
    <rect x='1' y='1' width='10' height='10'/>
    <line x1='3' y1='6' x2='9' y2='6'/>
    <line x1='6' y1='3' x2='6' y2='9'/>
  </symbol>
  <symbol class='button' id='minus'>
    <rect x='1' y='1' width='10' height='10'/>
    <line x1='3' y1='6' x2='9' y2='6'/>
  </symbol>

</defs>
<rect class='button' x='300' y='10' width='20' height='20' onclick='collapseAll()'/>
<line x1='303' y1='20' x2='317' y2='20'/>
<text x='330' y='20'>collapse all</text>
<rect class='button' x='400' y='10' width='20' height='20' onclick='expandAll()'/>
<line x1='403' y1='20' x2='417' y2='20'/>
<line x1='410' y1='13' x2='410' y2='27'/>
<text x='430' y='20'>expand all</text>

<g id='_1_1' class='box' transform='translate(45,1387)'>
<rect class='shadow' x='5' y='10' width='153' height='22'/>
<rect class='boxelement' x='0.5' y='4.5' width='153' height='22'
onmouseover='makeVisible("_1_1")' onmouseout='makeHidden("_1_1")'/>
<text class='strong' x='5.5' y='20.5'>GetRecipientsResponse</text>
<use x='152.5' y='9.5' xlink:href='#minus' id='s_1_1' onclick='show("_1_1")'/>
</g>

<g id='_1_1_1tb' class='box' transform='translate(243, 103)'>
<rect class='boxtypeelement' x='-15.5' y='-40.5' width='1587' height='2666' stroke-dasharray='17 6'/>
<text class='biggrey' x='-5.5' y='-25.5'>type: GetRecipientsResponse</text>
</g>
<g id='_1_1_1' class='box' transform='translate(243,1387)'>
<rect class='boxcompositor' x='0.5' y='5.5' width='40' height='20' rx='9'/>
<circle cx='12.5' cy='15.5' r='3'/>
<circle cx='20.5' cy='15.5' r='3'/>
<circle cx='28.5' cy='15.5' r='3'/>
<line x1='4.5' y1='15.5' x2='36.5' y2='15.5'/>
<line class='connection' x1='-33.5' y1='15.5' x2='0.5' y2='15.5'/>
<use x='39.5' y='9.5' xlink:href='#minus' id='s_1_1_1' onclick='show("_1_1_1")'/>
</g>

<g id='_1_1_1_1' class='box' transform='translate(328,464)'>
<rect class='boxcompositor' x='0.5' y='5.5' width='40' height='20' rx='9'/>
<circle cx='12.5' cy='15.5' r='3'/>
<circle cx='20.5' cy='15.5' r='3'/>
<circle cx='28.5' cy='15.5' r='3'/>
<line x1='4.5' y1='15.5' x2='36.5' y2='15.5'/>
<line class='connection' x1='-33.5' y1='15.5' x2='0.5' y2='15.5'/>
<use x='39.5' y='9.5' xlink:href='#minus' id='s_1_1_1_1' onclick='show("_1_1_1_1")'/>
</g>

<g id='_1_1_1_1_1' class='box' transform='translate(413,464)'>
<rect class='shadow' x='5' y='10' width='111' height='22'/>
<rect class='boxelement' x='0.5' y='4.5' width='111' height='22'
onmouseover='makeVisible("_1_1_1_1_1")' onmouseout='makeHidden("_1_1_1_1_1")'/>
<text class='strong' x='5.5' y='20.5'>responseHeader</text>
<line class='connection' x1='-33.5' y1='15.5' x2='0.5' y2='15.5'/>
<use x='110.5' y='9.5' xlink:href='#minus' id='s_1_1_1_1_1' onclick='show("_1_1_1_1_1")'/>
</g>

<g id='_1_1_1_1_1_1tb' class='box' transform='translate(569, 103)'>
<rect class='boxtypeelement' x='-15.5' y='-20.5' width='864' height='780' stroke-dasharray='17 6'/>
<text class='biggrey' x='-5.5' y='-5.5'>type: ResponseHeader</text>
</g>
<g id='_1_1_1_1_1_1' class='box' transform='translate(569,464)'>
<rect class='boxcompositor' x='0.5' y='5.5' width='40' height='20' rx='9'/>
<circle cx='12.5' cy='15.5' r='3'/>
<circle cx='20.5' cy='15.5' r='3'/>
<circle cx='28.5' cy='15.5' r='3'/>
<line x1='4.5' y1='15.5' x2='36.5' y2='15.5'/>
<line class='connection' x1='-33.5' y1='15.5' x2='0.5' y2='15.5'/>
<use x='39.5' y='9.5' xlink:href='#minus' id='s_1_1_1_1_1_1' onclick='show("_1_1_1_1_1_1")'/>
</g>

<g id='_1_1_1_1_1_1_1' class='box' transform='translate(654,405)'>
<rect class='boxcompositor' x='0.5' y='5.5' width='40' height='20' rx='9'/>
<circle cx='12.5' cy='15.5' r='3'/>
<circle cx='20.5' cy='15.5' r='3'/>
<circle cx='28.5' cy='15.5' r='3'/>
<line x1='4.5' y1='15.5' x2='36.5' y2='15.5'/>
<line class='connection' x1='-33.5' y1='15.5' x2='0.5' y2='15.5'/>
<use x='39.5' y='9.5' xlink:href='#minus' id='s_1_1_1_1_1_1_1' onclick='show("_1_1_1_1_1_1_1")'/>
</g>

<g id='_1_1_1_1_1_1_1_1' class='box' transform='translate(739,103)'>
<rect class='shadow' x='5' y='10' width='171' height='22'/>
<rect class='boxelement' x='0.5' y='4.5' width='171' height='22'
onmouseover='makeVisible("_1_1_1_1_1_1_1_1")' onmouseout='makeHidden("_1_1_1_1_1_1_1_1")'/>
<text class='strong' x='5.5' y='20.5'>messageId</text>
<text class='stronggreyitalic' x='74.5' y='20.5'>(type: string)</text>
<line class='connection' x1='-33.5' y1='15.5' x2='0.5' y2='15.5'/>
</g>

<g id='_1_1_1_1_1_1_1_2' class='box' transform='translate(739,140)'>
<rect class='shadow' x='5' y='10' width='183' height='22'/>
<rect class='boxelement' x='0.5' y='4.5' width='183' height='22'
onmouseover='makeVisible("_1_1_1_1_1_1_1_2")' onmouseout='makeHidden("_1_1_1_1_1_1_1_2")'/>
<text class='strong' x='5.5' y='20.5'>timestamp</text>
<text class='stronggreyitalic' x='74.5' y='20.5'>(type: dateTime)</text>
<line class='connection' x1='-33.5' y1='15.5' x2='0.5' y2='15.5'/>
</g>

<g id='_1_1_1_1_1_1_1_3' class='box' transform='translate(739,177)'>
<rect class='shadow' x='5' y='10' width='147' height='22'/>
<rect class='boxelement' x='0.5' y='4.5' width='147' height='22'
 stroke-dasharray="4 4"
onmouseover='makeVisible("_1_1_1_1_1_1_1_3")' onmouseout='makeHidden("_1_1_1_1_1_1_1_3")'/>
<text class='strong' x='5.5' y='20.5'>priority</text>
<text class='stronggreyitalic' x='68.5' y='20.5'>(type: int)</text>
<line class='connection' x1='-33.5' y1='15.5' x2='0.5' y2='15.5'/>
</g>

<g id='_1_1_1_1_1_1_1_4' class='box' transform='translate(739,214)'>
<rect class='shadow' x='5' y='10' width='195' height='22'/>
<rect class='boxelement' x='0.5' y='4.5' width='195' height='22'
 stroke-dasharray="4 4"
onmouseover='makeVisible("_1_1_1_1_1_1_1_4")' onmouseout='makeHidden("_1_1_1_1_1_1_1_4")'/>
<text class='strong' x='5.5' y='20.5'>correlationId</text>
<text class='stronggreyitalic' x='98.5' y='20.5'>(type: string)</text>
<line class='connection' x1='-33.5' y1='15.5' x2='0.5' y2='15.5'/>
</g>

<g id='_1_1_1_1_1_1_1_5' class='box' transform='translate(739,431)'>
<rect class='shadow' x='5' y='10' width='99' height='22'/>
<rect class='boxelement' x='0.5' y='4.5' width='99' height='22'
 stroke-dasharray="4 4"
onmouseover='makeVisible("_1_1_1_1_1_1_1_5")' onmouseout='makeHidden("_1_1_1_1_1_1_1_5")'/>
<text class='strong' x='5.5' y='20.5'>trackingInfo</text>
<line class='connection' x1='-33.5' y1='15.5' x2='0.5' y2='15.5'/>
<use x='98.5' y='9.5' xlink:href='#minus' id='s_1_1_1_1_1_1_1_5' onclick='show("_1_1_1_1_1_1_1_5")'/>
</g>

<g id='_1_1_1_1_1_1_1_5_1tb' class='box' transform='translate(883, 295)'>
<rect class='boxtypeelement' x='-15.5' y='-40.5' width='540' height='370' stroke-dasharray='17 6'/>
<text class='biggrey' x='-5.5' y='-25.5'>type: TrackingInfo</text>
</g>
<g id='_1_1_1_1_1_1_1_5_1' class='box' transform='translate(883,431)'>
<rect class='boxcompositor' x='0.5' y='5.5' width='40' height='20' rx='9'/>
<circle cx='12.5' cy='15.5' r='3'/>
<circle cx='20.5' cy='15.5' r='3'/>
<circle cx='28.5' cy='15.5' r='3'/>
<line x1='4.5' y1='15.5' x2='36.5' y2='15.5'/>
<line class='connection' x1='-33.5' y1='15.5' x2='0.5' y2='15.5'/>
<use x='39.5' y='9.5' xlink:href='#minus' id='s_1_1_1_1_1_1_1_5_1' onclick='show("_1_1_1_1_1_1_1_5_1")'/>
</g>

<g id='_1_1_1_1_1_1_1_5_1_1' class='box' transform='translate(968,313)'>
<rect class='shadow' x='5' y='10' width='87' height='22'/>
<rect class='boxelement' x='0.5' y='4.5' width='87' height='22'
 stroke-dasharray="4 4"
onmouseover='makeVisible("_1_1_1_1_1_1_1_5_1_1")' onmouseout='makeHidden("_1_1_1_1_1_1_1_5_1_1")'/>
<text class='strong' x='5.5' y='20.5'>businessId</text>
<line class='connection' x1='-33.5' y1='15.5' x2='0.5' y2='15.5'/>
<use x='86.5' y='9.5' xlink:href='#minus' id='s_1_1_1_1_1_1_1_5_1_1' onclick='show("_1_1_1_1_1_1_1_5_1_1")'/>
</g>

<g id='_1_1_1_1_1_1_1_5_1_1_1tb' class='box' transform='translate(1100, 295)'>
<rect class='boxtypeelement' x='-15.5' y='-20.5' width='289' height='94' stroke-dasharray='17 6'/>
<text class='biggrey' x='-5.5' y='-5.5'>type: TrackingIInfoDetail</text>
</g>
<g id='_1_1_1_1_1_1_1_5_1_1_1' class='box' transform='translate(1100,313)'>
<rect class='boxcompositor' x='0.5' y='5.5' width='40' height='20' rx='9'/>
<circle cx='12.5' cy='15.5' r='3'/>
<circle cx='20.5' cy='15.5' r='3'/>
<circle cx='28.5' cy='15.5' r='3'/>
<line x1='4.5' y1='15.5' x2='36.5' y2='15.5'/>
<line class='connection' x1='-33.5' y1='15.5' x2='0.5' y2='15.5'/>
<use x='39.5' y='9.5' xlink:href='#minus' id='s_1_1_1_1_1_1_1_5_1_1_1' onclick='show("_1_1_1_1_1_1_1_5_1_1_1")'/>
</g>

<g id='_1_1_1_1_1_1_1_5_1_1_1_1' class='box' transform='translate(1185,295)'>
<rect class='shadow' x='5' y='10' width='147' height='22'/>
<rect class='boxelement' x='0.5' y='4.5' width='147' height='22'
onmouseover='makeVisible("_1_1_1_1_1_1_1_5_1_1_1_1")' onmouseout='makeHidden("_1_1_1_1_1_1_1_5_1_1_1_1")'/>
<text class='strong' x='5.5' y='20.5'>value</text>
<text class='stronggreyitalic' x='50.5' y='20.5'>(type: string)</text>
<line class='connection' x1='-33.5' y1='15.5' x2='0.5' y2='15.5'/>
</g>

<g id='_1_1_1_1_1_1_1_5_1_1_1_2' class='box' transform='translate(1185,332)'>
<rect class='shadow' x='5' y='10' width='159' height='22'/>
<rect class='boxelement' x='0.5' y='4.5' width='159' height='22'
 stroke-dasharray="4 4"
onmouseover='makeVisible("_1_1_1_1_1_1_1_5_1_1_1_2")' onmouseout='makeHidden("_1_1_1_1_1_1_1_5_1_1_1_2")'/>
<text class='strong' x='5.5' y='20.5'>meaning</text>
<text class='stronggreyitalic' x='62.5' y='20.5'>(type: string)</text>
<line class='connection' id='p_1_1_1_1_1_1_1_5_1_1_1_2' x1='-33.5' y1='-21.5' x2='-33.5' y2='15.5'/>
<path class='connection' d='M-33.5,15.5 L0.5, 15.5'/>
</g>

<g id='_1_1_1_1_1_1_1_5_1_2' class='box' transform='translate(968,431)'>
<rect class='shadow' x='5' y='10' width='111' height='22'/>
<rect class='boxelement' x='0.5' y='4.5' width='111' height='22'
 stroke-dasharray="4 4"
onmouseover='makeVisible("_1_1_1_1_1_1_1_5_1_2")' onmouseout='makeHidden("_1_1_1_1_1_1_1_5_1_2")'/>
<text class='strong' x='5.5' y='20.5'>conversationId</text>
<line class='connection' x1='-33.5' y1='15.5' x2='0.5' y2='15.5'/>
<use x='110.5' y='9.5' xlink:href='#minus' id='s_1_1_1_1_1_1_1_5_1_2' onclick='show("_1_1_1_1_1_1_1_5_1_2")'/>
</g>

<g id='_1_1_1_1_1_1_1_5_1_2_1tb' class='box' transform='translate(1124, 413)'>
<rect class='boxtypeelement' x='-15.5' y='-20.5' width='289' height='94' stroke-dasharray='17 6'/>
<text class='biggrey' x='-5.5' y='-5.5'>type: TrackingIInfoDetail</text>
</g>
<g id='_1_1_1_1_1_1_1_5_1_2_1' class='box' transform='translate(1124,431)'>
<rect class='boxcompositor' x='0.5' y='5.5' width='40' height='20' rx='9'/>
<circle cx='12.5' cy='15.5' r='3'/>
<circle cx='20.5' cy='15.5' r='3'/>
<circle cx='28.5' cy='15.5' r='3'/>
<line x1='4.5' y1='15.5' x2='36.5' y2='15.5'/>
<line class='connection' x1='-33.5' y1='15.5' x2='0.5' y2='15.5'/>
<use x='39.5' y='9.5' xlink:href='#minus' id='s_1_1_1_1_1_1_1_5_1_2_1' onclick='show("_1_1_1_1_1_1_1_5_1_2_1")'/>
</g>

<g id='_1_1_1_1_1_1_1_5_1_2_1_1' class='box' transform='translate(1209,413)'>
<rect class='shadow' x='5' y='10' width='147' height='22'/>
<rect class='boxelement' x='0.5' y='4.5' width='147' height='22'
onmouseover='makeVisible("_1_1_1_1_1_1_1_5_1_2_1_1")' onmouseout='makeHidden("_1_1_1_1_1_1_1_5_1_2_1_1")'/>
<text class='strong' x='5.5' y='20.5'>value</text>
<text class='stronggreyitalic' x='50.5' y='20.5'>(type: string)</text>
<line class='connection' x1='-33.5' y1='15.5' x2='0.5' y2='15.5'/>
</g>

<g id='_1_1_1_1_1_1_1_5_1_2_1_2' class='box' transform='translate(1209,450)'>
<rect class='shadow' x='5' y='10' width='159' height='22'/>
<rect class='boxelement' x='0.5' y='4.5' width='159' height='22'
 stroke-dasharray="4 4"
onmouseover='makeVisible("_1_1_1_1_1_1_1_5_1_2_1_2")' onmouseout='makeHidden("_1_1_1_1_1_1_1_5_1_2_1_2")'/>
<text class='strong' x='5.5' y='20.5'>meaning</text>
<text class='stronggreyitalic' x='62.5' y='20.5'>(type: string)</text>
<line class='connection' id='p_1_1_1_1_1_1_1_5_1_2_1_2' x1='-33.5' y1='-21.5' x2='-33.5' y2='15.5'/>
<path class='connection' d='M-33.5,15.5 L0.5, 15.5'/>
</g>

<g id='_1_1_1_1_1_1_1_5_1_3' class='box' transform='translate(968,549)'>
<rect class='shadow' x='5' y='10' width='63' height='22'/>
<rect class='boxelement' x='0.5' y='4.5' width='63' height='22'
 stroke-dasharray="4 4"
onmouseover='makeVisible("_1_1_1_1_1_1_1_5_1_3")' onmouseout='makeHidden("_1_1_1_1_1_1_1_5_1_3")'/>
<text class='strong' x='5.5' y='20.5'>userId</text>
<line class='connection' id='p_1_1_1_1_1_1_1_5_1_3' x1='-33.5' y1='-220.5' x2='-33.5' y2='15.5'/>
<path class='connection' d='M-33.5,15.5 L0.5, 15.5'/>
<use x='62.5' y='9.5' xlink:href='#minus' id='s_1_1_1_1_1_1_1_5_1_3' onclick='show("_1_1_1_1_1_1_1_5_1_3")'/>
</g>

<g id='_1_1_1_1_1_1_1_5_1_3_1tb' class='box' transform='translate(1076, 531)'>
<rect class='boxtypeelement' x='-15.5' y='-20.5' width='289' height='94' stroke-dasharray='17 6'/>
<text class='biggrey' x='-5.5' y='-5.5'>type: TrackingIInfoDetail</text>
</g>
<g id='_1_1_1_1_1_1_1_5_1_3_1' class='box' transform='translate(1076,549)'>
<rect class='boxcompositor' x='0.5' y='5.5' width='40' height='20' rx='9'/>
<circle cx='12.5' cy='15.5' r='3'/>
<circle cx='20.5' cy='15.5' r='3'/>
<circle cx='28.5' cy='15.5' r='3'/>
<line x1='4.5' y1='15.5' x2='36.5' y2='15.5'/>
<line class='connection' x1='-33.5' y1='15.5' x2='0.5' y2='15.5'/>
<use x='39.5' y='9.5' xlink:href='#minus' id='s_1_1_1_1_1_1_1_5_1_3_1' onclick='show("_1_1_1_1_1_1_1_5_1_3_1")'/>
</g>

<g id='_1_1_1_1_1_1_1_5_1_3_1_1' class='box' transform='translate(1161,531)'>
<rect class='shadow' x='5' y='10' width='147' height='22'/>
<rect class='boxelement' x='0.5' y='4.5' width='147' height='22'
onmouseover='makeVisible("_1_1_1_1_1_1_1_5_1_3_1_1")' onmouseout='makeHidden("_1_1_1_1_1_1_1_5_1_3_1_1")'/>
<text class='strong' x='5.5' y='20.5'>value</text>
<text class='stronggreyitalic' x='50.5' y='20.5'>(type: string)</text>
<line class='connection' x1='-33.5' y1='15.5' x2='0.5' y2='15.5'/>
</g>

<g id='_1_1_1_1_1_1_1_5_1_3_1_2' class='box' transform='translate(1161,568)'>
<rect class='shadow' x='5' y='10' width='159' height='22'/>
<rect class='boxelement' x='0.5' y='4.5' width='159' height='22'
 stroke-dasharray="4 4"
onmouseover='makeVisible("_1_1_1_1_1_1_1_5_1_3_1_2")' onmouseout='makeHidden("_1_1_1_1_1_1_1_5_1_3_1_2")'/>
<text class='strong' x='5.5' y='20.5'>meaning</text>
<text class='stronggreyitalic' x='62.5' y='20.5'>(type: string)</text>
<line class='connection' id='p_1_1_1_1_1_1_1_5_1_3_1_2' x1='-33.5' y1='-21.5' x2='-33.5' y2='15.5'/>
<path class='connection' d='M-33.5,15.5 L0.5, 15.5'/>
</g>

<g id='_1_1_1_1_1_1_1_6' class='box' transform='translate(739,689)'>
<rect class='shadow' x='5' y='10' width='87' height='22'/>
<rect class='boxelement' x='0.5' y='4.5' width='87' height='22'
 stroke-dasharray="4 4"
onmouseover='makeVisible("_1_1_1_1_1_1_1_6")' onmouseout='makeHidden("_1_1_1_1_1_1_1_6")'/>
<text class='strong' x='5.5' y='20.5'>properties</text>
<line class='connection' id='p_1_1_1_1_1_1_1_6' x1='-33.5' y1='-570.5' x2='-33.5' y2='15.5'/>
<path class='connection' d='M-33.5,15.5 L0.5, 15.5'/>
<use x='86.5' y='9.5' xlink:href='#minus' id='s_1_1_1_1_1_1_1_6' onclick='show("_1_1_1_1_1_1_1_6")'/>
</g>

<g id='_1_1_1_1_1_1_1_6_1tb' class='box' transform='translate(871, 671)'>
<rect class='boxtypeelement' x='-15.5' y='-40.5' width='492' height='134' stroke-dasharray='17 6'/>
<text class='biggrey' x='-5.5' y='-25.5'>type: Properties</text>
</g>
<g id='_1_1_1_1_1_1_1_6_1' class='box' transform='translate(871,689)'>
<rect class='boxcompositor' x='0.5' y='5.5' width='40' height='20' rx='9'/>
<circle cx='12.5' cy='15.5' r='3'/>
<circle cx='20.5' cy='15.5' r='3'/>
<circle cx='28.5' cy='15.5' r='3'/>
<line x1='4.5' y1='15.5' x2='36.5' y2='15.5'/>
<line class='connection' x1='-33.5' y1='15.5' x2='0.5' y2='15.5'/>
<use x='39.5' y='9.5' xlink:href='#minus' id='s_1_1_1_1_1_1_1_6_1' onclick='show("_1_1_1_1_1_1_1_6_1")'/>
</g>

<g id='_1_1_1_1_1_1_1_6_1_1' class='box' transform='translate(956,689)'>
<rect class='shadow' x='5' y='10' width='75' height='22'/>
<rect class='boxelement' x='0.5' y='4.5' width='75' height='22'
onmouseover='makeVisible("_1_1_1_1_1_1_1_6_1_1")' onmouseout='makeHidden("_1_1_1_1_1_1_1_6_1_1")'/>
<text class='strong' x='5.5' y='20.5'>property</text>
<text x='50.5' y='45.5'>1..∞</text>
<line class='connection' x1='-33.5' y1='15.5' x2='0.5' y2='15.5'/>
<use x='74.5' y='9.5' xlink:href='#minus' id='s_1_1_1_1_1_1_1_6_1_1' onclick='show("_1_1_1_1_1_1_1_6_1_1")'/>
</g>

<g id='_1_1_1_1_1_1_1_6_1_1_1tb' class='box' transform='translate(1076, 671)'>
<rect class='boxtypeelement' x='-15.5' y='-20.5' width='277' height='94' stroke-dasharray='17 6'/>
<text class='biggrey' x='-5.5' y='-5.5'>type: Property</text>
</g>
<g id='_1_1_1_1_1_1_1_6_1_1_1' class='box' transform='translate(1076,689)'>
<rect class='boxcompositor' x='0.5' y='5.5' width='40' height='20' rx='9'/>
<circle cx='12.5' cy='15.5' r='3'/>
<circle cx='20.5' cy='15.5' r='3'/>
<circle cx='28.5' cy='15.5' r='3'/>
<line x1='4.5' y1='15.5' x2='36.5' y2='15.5'/>
<line class='connection' x1='-33.5' y1='15.5' x2='0.5' y2='15.5'/>
<use x='39.5' y='9.5' xlink:href='#minus' id='s_1_1_1_1_1_1_1_6_1_1_1' onclick='show("_1_1_1_1_1_1_1_6_1_1_1")'/>
</g>

<g id='_1_1_1_1_1_1_1_6_1_1_1_1' class='box' transform='translate(1161,671)'>
<rect class='shadow' x='5' y='10' width='141' height='22'/>
<rect class='boxelement' x='0.5' y='4.5' width='141' height='22'
onmouseover='makeVisible("_1_1_1_1_1_1_1_6_1_1_1_1")' onmouseout='makeHidden("_1_1_1_1_1_1_1_6_1_1_1_1")'/>
<text class='strong' x='5.5' y='20.5'>name</text>
<text class='stronggreyitalic' x='44.5' y='20.5'>(type: string)</text>
<line class='connection' x1='-33.5' y1='15.5' x2='0.5' y2='15.5'/>
</g>

<g id='_1_1_1_1_1_1_1_6_1_1_1_2' class='box' transform='translate(1161,708)'>
<rect class='shadow' x='5' y='10' width='147' height='22'/>
<rect class='boxelement' x='0.5' y='4.5' width='147' height='22'
 stroke-dasharray="4 4"
onmouseover='makeVisible("_1_1_1_1_1_1_1_6_1_1_1_2")' onmouseout='makeHidden("_1_1_1_1_1_1_1_6_1_1_1_2")'/>
<text class='strong' x='5.5' y='20.5'>value</text>
<text class='stronggreyitalic' x='50.5' y='20.5'>(type: string)</text>
<line class='connection' id='p_1_1_1_1_1_1_1_6_1_1_1_2' x1='-33.5' y1='-21.5' x2='-33.5' y2='15.5'/>
<path class='connection' d='M-33.5,15.5 L0.5, 15.5'/>
</g>

<g id='_1_1_1_1_1_1_2' class='box' transform='translate(654,807)'>
<rect class='boxcompositor' x='0.5' y='5.5' width='40' height='20' rx='9'/>
<circle cx='12.5' cy='15.5' r='3'/>
<circle cx='20.5' cy='15.5' r='3'/>
<circle cx='28.5' cy='15.5' r='3'/>
<line x1='4.5' y1='15.5' x2='36.5' y2='15.5'/>
<line class='connection' id='p_1_1_1_1_1_1_2' x1='-33.5' y1='-386.5' x2='-33.5' y2='15.5'/>
<path class='connection' d='M-33.5,15.5 L0.5, 15.5'/>
<use x='39.5' y='9.5' xlink:href='#minus' id='s_1_1_1_1_1_1_2' onclick='show("_1_1_1_1_1_1_2")'/>
</g>

<g id='_1_1_1_1_1_1_2_1' class='box' transform='translate(739,789)'>
<rect class='shadow' x='5' y='10' width='249' height='22'/>
<rect class='boxelement' x='0.5' y='4.5' width='249' height='22'
 stroke-dasharray="4 4"
onmouseover='makeVisible("_1_1_1_1_1_1_2_1")' onmouseout='makeHidden("_1_1_1_1_1_1_2_1")'/>
<text class='strong' x='5.5' y='20.5'>consumerIdentification</text>
<text class='stronggreyitalic' x='152.5' y='20.5'>(type: string)</text>
<line class='connection' x1='-33.5' y1='15.5' x2='0.5' y2='15.5'/>
</g>

<g id='_1_1_1_1_1_1_2_2' class='box' transform='translate(739,826)'>
<rect class='shadow' x='5' y='10' width='249' height='22'/>
<rect class='boxelement' x='0.5' y='4.5' width='249' height='22'
onmouseover='makeVisible("_1_1_1_1_1_1_2_2")' onmouseout='makeHidden("_1_1_1_1_1_1_2_2")'/>
<text class='strong' x='5.5' y='20.5'>providerIdentification</text>
<text class='stronggreyitalic' x='152.5' y='20.5'>(type: string)</text>
<line class='connection' id='p_1_1_1_1_1_1_2_2' x1='-33.5' y1='-21.5' x2='-33.5' y2='15.5'/>
<path class='connection' d='M-33.5,15.5 L0.5, 15.5'/>
</g>

<g id='_1_1_1_2' class='box' transform='translate(328,1822)'>
<rect class='boxcompositor' x='0.5' y='5.5' width='40' height='20' rx='9'/>
<circle cx='12.5' cy='15.5' r='3'/>
<circle cx='20.5' cy='15.5' r='3'/>
<circle cx='28.5' cy='15.5' r='3'/>
<line x1='4.5' y1='15.5' x2='36.5' y2='15.5'/>
<line class='connection' id='p_1_1_1_2' x1='-33.5' y1='-1342.5' x2='-33.5' y2='15.5'/>
<path class='connection' d='M-33.5,15.5 L0.5, 15.5'/>
<use x='39.5' y='9.5' xlink:href='#minus' id='s_1_1_1_2' onclick='show("_1_1_1_2")'/>
</g>

<g id='_1_1_1_2_1' class='box' transform='translate(413,1822)'>
<rect class='shadow' x='5' y='10' width='99' height='22'/>
<rect class='boxelement' x='0.5' y='4.5' width='99' height='22'
onmouseover='makeVisible("_1_1_1_2_1")' onmouseout='makeHidden("_1_1_1_2_1")'/>
<text class='strong' x='5.5' y='20.5'>responseBody</text>
<line class='connection' x1='-33.5' y1='15.5' x2='0.5' y2='15.5'/>
<use x='98.5' y='9.5' xlink:href='#minus' id='s_1_1_1_2_1' onclick='show("_1_1_1_2_1")'/>
</g>

<g id='_1_1_1_2_1_1tb' class='box' transform='translate(557, 973)'>
<rect class='boxtypeelement' x='-15.5' y='-60.5' width='1263' height='1836' stroke-dasharray='17 6'/>
<text class='biggrey' x='-5.5' y='-45.5'>type: GetRecipientsResponseBody</text>
</g>
<g id='_1_1_1_2_1_1' class='box' transform='translate(557,1822)'>
<rect class='boxcompositor' x='0.5' y='5.5' width='40' height='20' rx='9'/>
<circle cx='12.5' cy='15.5' r='3'/>
<circle cx='20.5' cy='15.5' r='3'/>
<circle cx='28.5' cy='15.5' r='3'/>
<line x1='4.5' y1='15.5' x2='36.5' y2='15.5'/>
<line class='connection' x1='-33.5' y1='15.5' x2='0.5' y2='15.5'/>
<use x='39.5' y='9.5' xlink:href='#minus' id='s_1_1_1_2_1_1' onclick='show("_1_1_1_2_1_1")'/>
</g>

<g id='_1_1_1_2_1_1_1' class='box' transform='translate(642,1763)'>
<rect class='shadow' x='5' y='10' width='87' height='22'/>
<rect class='boxelement' x='0.5' y='4.5' width='87' height='22'
 stroke-dasharray="4 4"
onmouseover='makeVisible("_1_1_1_2_1_1_1")' onmouseout='makeHidden("_1_1_1_2_1_1_1")'/>
<text class='strong' x='5.5' y='20.5'>recipients</text>
<line class='connection' x1='-33.5' y1='15.5' x2='0.5' y2='15.5'/>
<use x='86.5' y='9.5' xlink:href='#minus' id='s_1_1_1_2_1_1_1' onclick='show("_1_1_1_2_1_1_1")'/>
</g>

<g id='_1_1_1_2_1_1_1_1tb' class='box' transform='translate(774, 973)'>
<rect class='boxtypeelement' x='-15.5' y='-40.5' width='1036' height='1678' stroke-dasharray='17 6'/>
<text class='biggrey' x='-5.5' y='-25.5'>type: RecipientsForGetType</text>
</g>
<g id='_1_1_1_2_1_1_1_1' class='box' transform='translate(774,1763)'>
<rect class='boxcompositor' x='0.5' y='5.5' width='40' height='20' rx='9'/>
<circle cx='12.5' cy='15.5' r='3'/>
<circle cx='20.5' cy='15.5' r='3'/>
<circle cx='28.5' cy='15.5' r='3'/>
<line x1='4.5' y1='15.5' x2='36.5' y2='15.5'/>
<line class='connection' x1='-33.5' y1='15.5' x2='0.5' y2='15.5'/>
<use x='39.5' y='9.5' xlink:href='#minus' id='s_1_1_1_2_1_1_1_1' onclick='show("_1_1_1_2_1_1_1_1")'/>
</g>

<g id='_1_1_1_2_1_1_1_1_1' class='box' transform='translate(859,1667)'>
<rect class='shadow' x='5' y='10' width='81' height='22'/>
<rect class='boxelement' x='0.5' y='4.5' width='81' height='22'
onmouseover='makeVisible("_1_1_1_2_1_1_1_1_1")' onmouseout='makeHidden("_1_1_1_2_1_1_1_1_1")'/>
<text class='strong' x='5.5' y='20.5'>recipient</text>
<text x='56.5' y='45.5'>1..∞</text>
<line class='connection' x1='-33.5' y1='15.5' x2='0.5' y2='15.5'/>
<use x='80.5' y='9.5' xlink:href='#minus' id='s_1_1_1_2_1_1_1_1_1' onclick='show("_1_1_1_2_1_1_1_1_1")'/>
</g>

<g id='_1_1_1_2_1_1_1_1_1_1tb' class='box' transform='translate(985, 973)'>
<rect class='boxtypeelement' x='-15.5' y='-20.5' width='815' height='1446' stroke-dasharray='17 6'/>
<text class='biggrey' x='-5.5' y='-5.5'>type: RecipientForGetType</text>
</g>
<g id='_1_1_1_2_1_1_1_1_1_1' class='box' transform='translate(985,1667)'>
<rect class='boxcompositor' x='0.5' y='5.5' width='40' height='20' rx='9'/>
<circle cx='12.5' cy='15.5' r='3'/>
<circle cx='20.5' cy='15.5' r='3'/>
<circle cx='28.5' cy='15.5' r='3'/>
<line x1='4.5' y1='15.5' x2='36.5' y2='15.5'/>
<line class='connection' x1='-33.5' y1='15.5' x2='0.5' y2='15.5'/>
<use x='39.5' y='9.5' xlink:href='#minus' id='s_1_1_1_2_1_1_1_1_1_1' onclick='show("_1_1_1_2_1_1_1_1_1_1")'/>
</g>

<g id='_1_1_1_2_1_1_1_1_1_1_1' class='box' transform='translate(1070,973)'>
<rect class='shadow' x='5' y='10' width='165' height='22'/>
<rect class='boxelement' x='0.5' y='4.5' width='165' height='22'
 stroke-dasharray="4 4"
onmouseover='makeVisible("_1_1_1_2_1_1_1_1_1_1_1")' onmouseout='makeHidden("_1_1_1_2_1_1_1_1_1_1_1")'/>
<text class='strong' x='5.5' y='20.5'>email</text>
<text class='stronggreyitalic' x='50.5' y='20.5'>(type: String100)</text>
<line class='connection' x1='-33.5' y1='15.5' x2='0.5' y2='15.5'/>
</g>

<g id='_1_1_1_2_1_1_1_1_1_1_2' class='box' transform='translate(1070,1010)'>
<rect class='shadow' x='5' y='10' width='183' height='22'/>
<rect class='boxelement' x='0.5' y='4.5' width='183' height='22'
 stroke-dasharray="4 4"
onmouseover='makeVisible("_1_1_1_2_1_1_1_1_1_1_2")' onmouseout='makeHidden("_1_1_1_2_1_1_1_1_1_1_2")'/>
<text class='strong' x='5.5' y='20.5'>phoneNumber</text>
<text class='stronggreyitalic' x='86.5' y='20.5'>(type: string)</text>
<line class='connection' x1='-33.5' y1='15.5' x2='0.5' y2='15.5'/>
</g>

<g id='_1_1_1_2_1_1_1_1_1_1_3' class='box' transform='translate(1070,1047)'>
<rect class='shadow' x='5' y='10' width='153' height='22'/>
<rect class='boxelement' x='0.5' y='4.5' width='153' height='22'
onmouseover='makeVisible("_1_1_1_2_1_1_1_1_1_1_3")' onmouseout='makeHidden("_1_1_1_2_1_1_1_1_1_1_3")'/>
<text class='strong' x='5.5' y='20.5'>name</text>
<text class='stronggreyitalic' x='44.5' y='20.5'>(type: String50)</text>
<line class='connection' x1='-33.5' y1='15.5' x2='0.5' y2='15.5'/>
</g>

<g id='_1_1_1_2_1_1_1_1_1_1_4' class='box' transform='translate(1070,1084)'>
<rect class='shadow' x='5' y='10' width='129' height='22'/>
<rect class='boxelement' x='0.5' y='4.5' width='129' height='22'
onmouseover='makeVisible("_1_1_1_2_1_1_1_1_1_1_4")' onmouseout='makeHidden("_1_1_1_2_1_1_1_1_1_1_4")'/>
<text class='strong' x='5.5' y='20.5'>order</text>
<text class='stronggreyitalic' x='50.5' y='20.5'>(type: int)</text>
<line class='connection' x1='-33.5' y1='15.5' x2='0.5' y2='15.5'/>
</g>

<g id='_1_1_1_2_1_1_1_1_1_1_5' class='box' transform='translate(1070,1121)'>
<rect class='shadow' x='5' y='10' width='183' height='22'/>
<rect class='boxelement' x='0.5' y='4.5' width='183' height='22'
 stroke-dasharray="4 4"
onmouseover='makeVisible("_1_1_1_2_1_1_1_1_1_1_5")' onmouseout='makeHidden("_1_1_1_2_1_1_1_1_1_1_5")'/>
<text class='strong' x='5.5' y='20.5'>recipientId</text>
<text class='stronggreyitalic' x='86.5' y='20.5'>(type: string)</text>
<line class='connection' x1='-33.5' y1='15.5' x2='0.5' y2='15.5'/>
</g>

<g id='_1_1_1_2_1_1_1_1_1_1_6' class='box' transform='translate(1070,1180)'>
<rect class='shadow' x='5' y='10' width='135' height='22'/>
<rect class='boxelement' x='0.5' y='4.5' width='135' height='22'
 stroke-dasharray="4 4"
onmouseover='makeVisible("_1_1_1_2_1_1_1_1_1_1_6")' onmouseout='makeHidden("_1_1_1_2_1_1_1_1_1_1_6")'/>
<text class='strong' x='5.5' y='20.5'>signatureProviders</text>
<line class='connection' x1='-33.5' y1='15.5' x2='0.5' y2='15.5'/>
<use x='134.5' y='9.5' xlink:href='#minus' id='s_1_1_1_2_1_1_1_1_1_1_6' onclick='show("_1_1_1_2_1_1_1_1_1_1_6")'/>
</g>

<g id='_1_1_1_2_1_1_1_1_1_1_6_1tb' class='box' transform='translate(1250, 1180)'>
<rect class='boxtypeelement' x='-15.5' y='-20.5' width='445' height='77' stroke-dasharray='17 6'/>
<text class='biggrey' x='-5.5' y='-5.5'>type: SignatureProviderList</text>
</g>
<g id='_1_1_1_2_1_1_1_1_1_1_6_1' class='box' transform='translate(1250,1180)'>
<rect class='boxcompositor' x='0.5' y='5.5' width='40' height='20' rx='9'/>
<circle cx='12.5' cy='15.5' r='3'/>
<circle cx='20.5' cy='15.5' r='3'/>
<circle cx='28.5' cy='15.5' r='3'/>
<line x1='4.5' y1='15.5' x2='36.5' y2='15.5'/>
<line class='connection' x1='-33.5' y1='15.5' x2='0.5' y2='15.5'/>
<use x='39.5' y='9.5' xlink:href='#minus' id='s_1_1_1_2_1_1_1_1_1_1_6_1' onclick='show("_1_1_1_2_1_1_1_1_1_1_6_1")'/>
</g>

<g id='_1_1_1_2_1_1_1_1_1_1_6_1_1' class='box' transform='translate(1335,1180)'>
<rect class='shadow' x='5' y='10' width='315' height='22'/>
<rect class='boxelement' x='0.5' y='4.5' width='315' height='22'
onmouseover='makeVisible("_1_1_1_2_1_1_1_1_1_1_6_1_1")' onmouseout='makeHidden("_1_1_1_2_1_1_1_1_1_1_6_1_1")'/>
<text class='strong' x='5.5' y='20.5'>signatureProvider</text>
<text class='stronggreyitalic' x='122.5' y='20.5'>(type: SignatureProvidersEnum)</text>
<text x='290.5' y='45.5'>1..∞</text>
<line class='connection' x1='-33.5' y1='15.5' x2='0.5' y2='15.5'/>
</g>

<g id='_1_1_1_2_1_1_1_1_1_1_7' class='box' transform='translate(1070,1239)'>
<rect class='shadow' x='5' y='10' width='183' height='22'/>
<rect class='boxelement' x='0.5' y='4.5' width='183' height='22'
 stroke-dasharray="4 4"
onmouseover='makeVisible("_1_1_1_2_1_1_1_1_1_1_7")' onmouseout='makeHidden("_1_1_1_2_1_1_1_1_1_1_7")'/>
<text class='strong' x='5.5' y='20.5'>accessCode</text>
<text class='stronggreyitalic' x='80.5' y='20.5'>(type: boolean)</text>
<line class='connection' x1='-33.5' y1='15.5' x2='0.5' y2='15.5'/>
</g>

<g id='_1_1_1_2_1_1_1_1_1_1_8' class='box' transform='translate(1070,1431)'>
<rect class='shadow' x='5' y='10' width='99' height='22'/>
<rect class='boxelement' x='0.5' y='4.5' width='99' height='22'
 stroke-dasharray="4 4"
onmouseover='makeVisible("_1_1_1_2_1_1_1_1_1_1_8")' onmouseout='makeHidden("_1_1_1_2_1_1_1_1_1_1_8")'/>
<text class='strong' x='5.5' y='20.5'>tabSignature</text>
<line class='connection' x1='-33.5' y1='15.5' x2='0.5' y2='15.5'/>
<use x='98.5' y='9.5' xlink:href='#minus' id='s_1_1_1_2_1_1_1_1_1_1_8' onclick='show("_1_1_1_2_1_1_1_1_1_1_8")'/>
</g>

<g id='_1_1_1_2_1_1_1_1_1_1_8_1tb' class='box' transform='translate(1214, 1320)'>
<rect class='boxtypeelement' x='-15.5' y='-40.5' width='552' height='319' stroke-dasharray='17 6'/>
<text class='biggrey' x='-5.5' y='-25.5'>type: TabsType</text>
</g>
<g id='_1_1_1_2_1_1_1_1_1_1_8_1' class='box' transform='translate(1214,1431)'>
<rect class='boxcompositor' x='0.5' y='5.5' width='40' height='20' rx='9'/>
<circle cx='12.5' cy='15.5' r='3'/>
<circle cx='20.5' cy='15.5' r='3'/>
<circle cx='28.5' cy='15.5' r='3'/>
<line x1='4.5' y1='15.5' x2='36.5' y2='15.5'/>
<line class='connection' x1='-33.5' y1='15.5' x2='0.5' y2='15.5'/>
<use x='39.5' y='9.5' xlink:href='#minus' id='s_1_1_1_2_1_1_1_1_1_1_8_1' onclick='show("_1_1_1_2_1_1_1_1_1_1_8_1")'/>
</g>

<g id='_1_1_1_2_1_1_1_1_1_1_8_1_1' class='box' transform='translate(1299,1431)'>
<rect class='shadow' x='5' y='10' width='45' height='22'/>
<rect class='boxelement' x='0.5' y='4.5' width='45' height='22'
onmouseover='makeVisible("_1_1_1_2_1_1_1_1_1_1_8_1_1")' onmouseout='makeHidden("_1_1_1_2_1_1_1_1_1_1_8_1_1")'/>
<text class='strong' x='5.5' y='20.5'>tab</text>
<text x='20.5' y='45.5'>1..∞</text>
<line class='connection' x1='-33.5' y1='15.5' x2='0.5' y2='15.5'/>
<use x='44.5' y='9.5' xlink:href='#minus' id='s_1_1_1_2_1_1_1_1_1_1_8_1_1' onclick='show("_1_1_1_2_1_1_1_1_1_1_8_1_1")'/>
</g>

<g id='_1_1_1_2_1_1_1_1_1_1_8_1_1_1tb' class='box' transform='translate(1389, 1320)'>
<rect class='boxtypeelement' x='-15.5' y='-20.5' width='367' height='279' stroke-dasharray='17 6'/>
<text class='biggrey' x='-5.5' y='-5.5'>type: TabType</text>
</g>
<g id='_1_1_1_2_1_1_1_1_1_1_8_1_1_1' class='box' transform='translate(1389,1431)'>
<rect class='boxcompositor' x='0.5' y='5.5' width='40' height='20' rx='9'/>
<circle cx='12.5' cy='15.5' r='3'/>
<circle cx='20.5' cy='15.5' r='3'/>
<circle cx='28.5' cy='15.5' r='3'/>
<line x1='4.5' y1='15.5' x2='36.5' y2='15.5'/>
<line class='connection' x1='-33.5' y1='15.5' x2='0.5' y2='15.5'/>
<use x='39.5' y='9.5' xlink:href='#minus' id='s_1_1_1_2_1_1_1_1_1_1_8_1_1_1' onclick='show("_1_1_1_2_1_1_1_1_1_1_8_1_1_1")'/>
</g>

<g id='_1_1_1_2_1_1_1_1_1_1_8_1_1_1_1' class='box' transform='translate(1474,1320)'>
<rect class='shadow' x='5' y='10' width='183' height='22'/>
<rect class='boxelement' x='0.5' y='4.5' width='183' height='22'
onmouseover='makeVisible("_1_1_1_2_1_1_1_1_1_1_8_1_1_1_1")' onmouseout='makeHidden("_1_1_1_2_1_1_1_1_1_1_8_1_1_1_1")'/>
<text class='strong' x='5.5' y='20.5'>recipientId</text>
<text class='stronggreyitalic' x='86.5' y='20.5'>(type: string)</text>
<line class='connection' x1='-33.5' y1='15.5' x2='0.5' y2='15.5'/>
</g>

<g id='_1_1_1_2_1_1_1_1_1_1_8_1_1_1_2' class='box' transform='translate(1474,1357)'>
<rect class='shadow' x='5' y='10' width='189' height='22'/>
<rect class='boxelement' x='0.5' y='4.5' width='189' height='22'
onmouseover='makeVisible("_1_1_1_2_1_1_1_1_1_1_8_1_1_1_2")' onmouseout='makeHidden("_1_1_1_2_1_1_1_1_1_1_8_1_1_1_2")'/>
<text class='strong' x='5.5' y='20.5'>anchorString</text>
<text class='stronggreyitalic' x='92.5' y='20.5'>(type: string)</text>
<line class='connection' x1='-33.5' y1='15.5' x2='0.5' y2='15.5'/>
</g>

<g id='_1_1_1_2_1_1_1_1_1_1_8_1_1_1_3' class='box' transform='translate(1474,1394)'>
<rect class='shadow' x='5' y='10' width='237' height='22'/>
<rect class='boxelement' x='0.5' y='4.5' width='237' height='22'
onmouseover='makeVisible("_1_1_1_2_1_1_1_1_1_1_8_1_1_1_3")' onmouseout='makeHidden("_1_1_1_2_1_1_1_1_1_1_8_1_1_1_3")'/>
<text class='strong' x='5.5' y='20.5'>anchorUnits</text>
<text class='stronggreyitalic' x='86.5' y='20.5'>(type: AnchorUnitsEnum)</text>
<line class='connection' x1='-33.5' y1='15.5' x2='0.5' y2='15.5'/>
</g>

<g id='_1_1_1_2_1_1_1_1_1_1_8_1_1_1_4' class='box' transform='translate(1474,1431)'>
<rect class='shadow' x='5' y='10' width='195' height='22'/>
<rect class='boxelement' x='0.5' y='4.5' width='195' height='22'
onmouseover='makeVisible("_1_1_1_2_1_1_1_1_1_1_8_1_1_1_4")' onmouseout='makeHidden("_1_1_1_2_1_1_1_1_1_1_8_1_1_1_4")'/>
<text class='strong' x='5.5' y='20.5'>anchorXOffset</text>
<text class='stronggreyitalic' x='98.5' y='20.5'>(type: string)</text>
<line class='connection' x1='-33.5' y1='15.5' x2='0.5' y2='15.5'/>
</g>

<g id='_1_1_1_2_1_1_1_1_1_1_8_1_1_1_5' class='box' transform='translate(1474,1468)'>
<rect class='shadow' x='5' y='10' width='195' height='22'/>
<rect class='boxelement' x='0.5' y='4.5' width='195' height='22'
onmouseover='makeVisible("_1_1_1_2_1_1_1_1_1_1_8_1_1_1_5")' onmouseout='makeHidden("_1_1_1_2_1_1_1_1_1_1_8_1_1_1_5")'/>
<text class='strong' x='5.5' y='20.5'>anchorYOffset</text>
<text class='stronggreyitalic' x='98.5' y='20.5'>(type: string)</text>
<line class='connection' x1='-33.5' y1='15.5' x2='0.5' y2='15.5'/>
</g>

<g id='_1_1_1_2_1_1_1_1_1_1_8_1_1_1_6' class='box' transform='translate(1474,1505)'>
<rect class='shadow' x='5' y='10' width='141' height='22'/>
<rect class='boxelement' x='0.5' y='4.5' width='141' height='22'
onmouseover='makeVisible("_1_1_1_2_1_1_1_1_1_1_8_1_1_1_6")' onmouseout='makeHidden("_1_1_1_2_1_1_1_1_1_1_8_1_1_1_6")'/>
<text class='strong' x='5.5' y='20.5'>name</text>
<text class='stronggreyitalic' x='44.5' y='20.5'>(type: string)</text>
<line class='connection' x1='-33.5' y1='15.5' x2='0.5' y2='15.5'/>
</g>

<g id='_1_1_1_2_1_1_1_1_1_1_8_1_1_1_7' class='box' transform='translate(1474,1542)'>
<rect class='shadow' x='5' y='10' width='183' height='22'/>
<rect class='boxelement' x='0.5' y='4.5' width='183' height='22'
 stroke-dasharray="4 4"
onmouseover='makeVisible("_1_1_1_2_1_1_1_1_1_1_8_1_1_1_7")' onmouseout='makeHidden("_1_1_1_2_1_1_1_1_1_1_8_1_1_1_7")'/>
<text class='strong' x='5.5' y='20.5'>tabLabel</text>
<text class='stronggreyitalic' x='68.5' y='20.5'>(type: String500)</text>
<line class='connection' id='p_1_1_1_2_1_1_1_1_1_1_8_1_1_1_7' x1='-33.5' y1='-206.5' x2='-33.5' y2='15.5'/>
<path class='connection' d='M-33.5,15.5 L0.5, 15.5'/>
</g>

<g id='_1_1_1_2_1_1_1_1_1_1_9' class='box' transform='translate(1070,1774)'>
<rect class='shadow' x='5' y='10' width='123' height='22'/>
<rect class='boxelement' x='0.5' y='4.5' width='123' height='22'
 stroke-dasharray="4 4"
onmouseover='makeVisible("_1_1_1_2_1_1_1_1_1_1_9")' onmouseout='makeHidden("_1_1_1_2_1_1_1_1_1_1_9")'/>
<text class='strong' x='5.5' y='20.5'>tabSignatureDate</text>
<line class='connection' x1='-33.5' y1='15.5' x2='0.5' y2='15.5'/>
<use x='122.5' y='9.5' xlink:href='#minus' id='s_1_1_1_2_1_1_1_1_1_1_9' onclick='show("_1_1_1_2_1_1_1_1_1_1_9")'/>
</g>

<g id='_1_1_1_2_1_1_1_1_1_1_9_1tb' class='box' transform='translate(1238, 1645)'>
<rect class='boxtypeelement' x='-15.5' y='-40.5' width='552' height='356' stroke-dasharray='17 6'/>
<text class='biggrey' x='-5.5' y='-25.5'>type: FontTabsType</text>
</g>
<g id='_1_1_1_2_1_1_1_1_1_1_9_1' class='box' transform='translate(1238,1774)'>
<rect class='boxcompositor' x='0.5' y='5.5' width='40' height='20' rx='9'/>
<circle cx='12.5' cy='15.5' r='3'/>
<circle cx='20.5' cy='15.5' r='3'/>
<circle cx='28.5' cy='15.5' r='3'/>
<line x1='4.5' y1='15.5' x2='36.5' y2='15.5'/>
<line class='connection' x1='-33.5' y1='15.5' x2='0.5' y2='15.5'/>
<use x='39.5' y='9.5' xlink:href='#minus' id='s_1_1_1_2_1_1_1_1_1_1_9_1' onclick='show("_1_1_1_2_1_1_1_1_1_1_9_1")'/>
</g>

<g id='_1_1_1_2_1_1_1_1_1_1_9_1_1' class='box' transform='translate(1323,1774)'>
<rect class='shadow' x='5' y='10' width='45' height='22'/>
<rect class='boxelement' x='0.5' y='4.5' width='45' height='22'
onmouseover='makeVisible("_1_1_1_2_1_1_1_1_1_1_9_1_1")' onmouseout='makeHidden("_1_1_1_2_1_1_1_1_1_1_9_1_1")'/>
<text class='strong' x='5.5' y='20.5'>tab</text>
<text x='20.5' y='45.5'>1..∞</text>
<line class='connection' x1='-33.5' y1='15.5' x2='0.5' y2='15.5'/>
<use x='44.5' y='9.5' xlink:href='#minus' id='s_1_1_1_2_1_1_1_1_1_1_9_1_1' onclick='show("_1_1_1_2_1_1_1_1_1_1_9_1_1")'/>
</g>

<g id='_1_1_1_2_1_1_1_1_1_1_9_1_1_1tb' class='box' transform='translate(1413, 1645)'>
<rect class='boxtypeelement' x='-15.5' y='-20.5' width='367' height='316' stroke-dasharray='17 6'/>
<text class='biggrey' x='-5.5' y='-5.5'>type: FontTabType</text>
</g>
<g id='_1_1_1_2_1_1_1_1_1_1_9_1_1_1' class='box' transform='translate(1413,1774)'>
<rect class='boxcompositor' x='0.5' y='5.5' width='40' height='20' rx='9'/>
<circle cx='12.5' cy='15.5' r='3'/>
<circle cx='20.5' cy='15.5' r='3'/>
<circle cx='28.5' cy='15.5' r='3'/>
<line x1='4.5' y1='15.5' x2='36.5' y2='15.5'/>
<line class='connection' x1='-33.5' y1='15.5' x2='0.5' y2='15.5'/>
<use x='39.5' y='9.5' xlink:href='#minus' id='s_1_1_1_2_1_1_1_1_1_1_9_1_1_1' onclick='show("_1_1_1_2_1_1_1_1_1_1_9_1_1_1")'/>
</g>

<g id='_1_1_1_2_1_1_1_1_1_1_9_1_1_1_1' class='box' transform='translate(1498,1645)'>
<rect class='shadow' x='5' y='10' width='183' height='22'/>
<rect class='boxelement' x='0.5' y='4.5' width='183' height='22'
onmouseover='makeVisible("_1_1_1_2_1_1_1_1_1_1_9_1_1_1_1")' onmouseout='makeHidden("_1_1_1_2_1_1_1_1_1_1_9_1_1_1_1")'/>
<text class='strong' x='5.5' y='20.5'>recipientId</text>
<text class='stronggreyitalic' x='86.5' y='20.5'>(type: string)</text>
<line class='connection' x1='-33.5' y1='15.5' x2='0.5' y2='15.5'/>
</g>

<g id='_1_1_1_2_1_1_1_1_1_1_9_1_1_1_2' class='box' transform='translate(1498,1682)'>
<rect class='shadow' x='5' y='10' width='189' height='22'/>
<rect class='boxelement' x='0.5' y='4.5' width='189' height='22'
onmouseover='makeVisible("_1_1_1_2_1_1_1_1_1_1_9_1_1_1_2")' onmouseout='makeHidden("_1_1_1_2_1_1_1_1_1_1_9_1_1_1_2")'/>
<text class='strong' x='5.5' y='20.5'>anchorString</text>
<text class='stronggreyitalic' x='92.5' y='20.5'>(type: string)</text>
<line class='connection' x1='-33.5' y1='15.5' x2='0.5' y2='15.5'/>
</g>

<g id='_1_1_1_2_1_1_1_1_1_1_9_1_1_1_3' class='box' transform='translate(1498,1719)'>
<rect class='shadow' x='5' y='10' width='237' height='22'/>
<rect class='boxelement' x='0.5' y='4.5' width='237' height='22'
onmouseover='makeVisible("_1_1_1_2_1_1_1_1_1_1_9_1_1_1_3")' onmouseout='makeHidden("_1_1_1_2_1_1_1_1_1_1_9_1_1_1_3")'/>
<text class='strong' x='5.5' y='20.5'>anchorUnits</text>
<text class='stronggreyitalic' x='86.5' y='20.5'>(type: AnchorUnitsEnum)</text>
<line class='connection' x1='-33.5' y1='15.5' x2='0.5' y2='15.5'/>
</g>

<g id='_1_1_1_2_1_1_1_1_1_1_9_1_1_1_4' class='box' transform='translate(1498,1756)'>
<rect class='shadow' x='5' y='10' width='195' height='22'/>
<rect class='boxelement' x='0.5' y='4.5' width='195' height='22'
onmouseover='makeVisible("_1_1_1_2_1_1_1_1_1_1_9_1_1_1_4")' onmouseout='makeHidden("_1_1_1_2_1_1_1_1_1_1_9_1_1_1_4")'/>
<text class='strong' x='5.5' y='20.5'>anchorXOffset</text>
<text class='stronggreyitalic' x='98.5' y='20.5'>(type: string)</text>
<line class='connection' x1='-33.5' y1='15.5' x2='0.5' y2='15.5'/>
</g>

<g id='_1_1_1_2_1_1_1_1_1_1_9_1_1_1_5' class='box' transform='translate(1498,1793)'>
<rect class='shadow' x='5' y='10' width='195' height='22'/>
<rect class='boxelement' x='0.5' y='4.5' width='195' height='22'
onmouseover='makeVisible("_1_1_1_2_1_1_1_1_1_1_9_1_1_1_5")' onmouseout='makeHidden("_1_1_1_2_1_1_1_1_1_1_9_1_1_1_5")'/>
<text class='strong' x='5.5' y='20.5'>anchorYOffset</text>
<text class='stronggreyitalic' x='98.5' y='20.5'>(type: string)</text>
<line class='connection' x1='-33.5' y1='15.5' x2='0.5' y2='15.5'/>
</g>

<g id='_1_1_1_2_1_1_1_1_1_1_9_1_1_1_6' class='box' transform='translate(1498,1830)'>
<rect class='shadow' x='5' y='10' width='201' height='22'/>
<rect class='boxelement' x='0.5' y='4.5' width='201' height='22'
 stroke-dasharray="4 4"
onmouseover='makeVisible("_1_1_1_2_1_1_1_1_1_1_9_1_1_1_6")' onmouseout='makeHidden("_1_1_1_2_1_1_1_1_1_1_9_1_1_1_6")'/>
<text class='strong' x='5.5' y='20.5'>fontSize</text>
<text class='stronggreyitalic' x='68.5' y='20.5'>(type: FontSizeEnum)</text>
<line class='connection' x1='-33.5' y1='15.5' x2='0.5' y2='15.5'/>
</g>

<g id='_1_1_1_2_1_1_1_1_1_1_9_1_1_1_7' class='box' transform='translate(1498,1867)'>
<rect class='shadow' x='5' y='10' width='141' height='22'/>
<rect class='boxelement' x='0.5' y='4.5' width='141' height='22'
onmouseover='makeVisible("_1_1_1_2_1_1_1_1_1_1_9_1_1_1_7")' onmouseout='makeHidden("_1_1_1_2_1_1_1_1_1_1_9_1_1_1_7")'/>
<text class='strong' x='5.5' y='20.5'>name</text>
<text class='stronggreyitalic' x='44.5' y='20.5'>(type: string)</text>
<line class='connection' x1='-33.5' y1='15.5' x2='0.5' y2='15.5'/>
</g>

<g id='_1_1_1_2_1_1_1_1_1_1_9_1_1_1_8' class='box' transform='translate(1498,1904)'>
<rect class='shadow' x='5' y='10' width='183' height='22'/>
<rect class='boxelement' x='0.5' y='4.5' width='183' height='22'
 stroke-dasharray="4 4"
onmouseover='makeVisible("_1_1_1_2_1_1_1_1_1_1_9_1_1_1_8")' onmouseout='makeHidden("_1_1_1_2_1_1_1_1_1_1_9_1_1_1_8")'/>
<text class='strong' x='5.5' y='20.5'>tabLabel</text>
<text class='stronggreyitalic' x='68.5' y='20.5'>(type: String500)</text>
<line class='connection' id='p_1_1_1_2_1_1_1_1_1_1_9_1_1_1_8' x1='-33.5' y1='-243.5' x2='-33.5' y2='15.5'/>
<path class='connection' d='M-33.5,15.5 L0.5, 15.5'/>
</g>

<g id='_1_1_1_2_1_1_1_1_1_1_10' class='box' transform='translate(1070,2136)'>
<rect class='shadow' x='5' y='10' width='123' height='22'/>
<rect class='boxelement' x='0.5' y='4.5' width='123' height='22'
 stroke-dasharray="4 4"
onmouseover='makeVisible("_1_1_1_2_1_1_1_1_1_1_10")' onmouseout='makeHidden("_1_1_1_2_1_1_1_1_1_1_10")'/>
<text class='strong' x='5.5' y='20.5'>tabSignatureName</text>
<line class='connection' x1='-33.5' y1='15.5' x2='0.5' y2='15.5'/>
<use x='122.5' y='9.5' xlink:href='#minus' id='s_1_1_1_2_1_1_1_1_1_1_10' onclick='show("_1_1_1_2_1_1_1_1_1_1_10")'/>
</g>

<g id='_1_1_1_2_1_1_1_1_1_1_10_1tb' class='box' transform='translate(1238, 2007)'>
<rect class='boxtypeelement' x='-15.5' y='-40.5' width='552' height='356' stroke-dasharray='17 6'/>
<text class='biggrey' x='-5.5' y='-25.5'>type: FontTabsType</text>
</g>
<g id='_1_1_1_2_1_1_1_1_1_1_10_1' class='box' transform='translate(1238,2136)'>
<rect class='boxcompositor' x='0.5' y='5.5' width='40' height='20' rx='9'/>
<circle cx='12.5' cy='15.5' r='3'/>
<circle cx='20.5' cy='15.5' r='3'/>
<circle cx='28.5' cy='15.5' r='3'/>
<line x1='4.5' y1='15.5' x2='36.5' y2='15.5'/>
<line class='connection' x1='-33.5' y1='15.5' x2='0.5' y2='15.5'/>
<use x='39.5' y='9.5' xlink:href='#minus' id='s_1_1_1_2_1_1_1_1_1_1_10_1' onclick='show("_1_1_1_2_1_1_1_1_1_1_10_1")'/>
</g>

<g id='_1_1_1_2_1_1_1_1_1_1_10_1_1' class='box' transform='translate(1323,2136)'>
<rect class='shadow' x='5' y='10' width='45' height='22'/>
<rect class='boxelement' x='0.5' y='4.5' width='45' height='22'
onmouseover='makeVisible("_1_1_1_2_1_1_1_1_1_1_10_1_1")' onmouseout='makeHidden("_1_1_1_2_1_1_1_1_1_1_10_1_1")'/>
<text class='strong' x='5.5' y='20.5'>tab</text>
<text x='20.5' y='45.5'>1..∞</text>
<line class='connection' x1='-33.5' y1='15.5' x2='0.5' y2='15.5'/>
<use x='44.5' y='9.5' xlink:href='#minus' id='s_1_1_1_2_1_1_1_1_1_1_10_1_1' onclick='show("_1_1_1_2_1_1_1_1_1_1_10_1_1")'/>
</g>

<g id='_1_1_1_2_1_1_1_1_1_1_10_1_1_1tb' class='box' transform='translate(1413, 2007)'>
<rect class='boxtypeelement' x='-15.5' y='-20.5' width='367' height='316' stroke-dasharray='17 6'/>
<text class='biggrey' x='-5.5' y='-5.5'>type: FontTabType</text>
</g>
<g id='_1_1_1_2_1_1_1_1_1_1_10_1_1_1' class='box' transform='translate(1413,2136)'>
<rect class='boxcompositor' x='0.5' y='5.5' width='40' height='20' rx='9'/>
<circle cx='12.5' cy='15.5' r='3'/>
<circle cx='20.5' cy='15.5' r='3'/>
<circle cx='28.5' cy='15.5' r='3'/>
<line x1='4.5' y1='15.5' x2='36.5' y2='15.5'/>
<line class='connection' x1='-33.5' y1='15.5' x2='0.5' y2='15.5'/>
<use x='39.5' y='9.5' xlink:href='#minus' id='s_1_1_1_2_1_1_1_1_1_1_10_1_1_1' onclick='show("_1_1_1_2_1_1_1_1_1_1_10_1_1_1")'/>
</g>

<g id='_1_1_1_2_1_1_1_1_1_1_10_1_1_1_1' class='box' transform='translate(1498,2007)'>
<rect class='shadow' x='5' y='10' width='183' height='22'/>
<rect class='boxelement' x='0.5' y='4.5' width='183' height='22'
onmouseover='makeVisible("_1_1_1_2_1_1_1_1_1_1_10_1_1_1_1")' onmouseout='makeHidden("_1_1_1_2_1_1_1_1_1_1_10_1_1_1_1")'/>
<text class='strong' x='5.5' y='20.5'>recipientId</text>
<text class='stronggreyitalic' x='86.5' y='20.5'>(type: string)</text>
<line class='connection' x1='-33.5' y1='15.5' x2='0.5' y2='15.5'/>
</g>

<g id='_1_1_1_2_1_1_1_1_1_1_10_1_1_1_2' class='box' transform='translate(1498,2044)'>
<rect class='shadow' x='5' y='10' width='189' height='22'/>
<rect class='boxelement' x='0.5' y='4.5' width='189' height='22'
onmouseover='makeVisible("_1_1_1_2_1_1_1_1_1_1_10_1_1_1_2")' onmouseout='makeHidden("_1_1_1_2_1_1_1_1_1_1_10_1_1_1_2")'/>
<text class='strong' x='5.5' y='20.5'>anchorString</text>
<text class='stronggreyitalic' x='92.5' y='20.5'>(type: string)</text>
<line class='connection' x1='-33.5' y1='15.5' x2='0.5' y2='15.5'/>
</g>

<g id='_1_1_1_2_1_1_1_1_1_1_10_1_1_1_3' class='box' transform='translate(1498,2081)'>
<rect class='shadow' x='5' y='10' width='237' height='22'/>
<rect class='boxelement' x='0.5' y='4.5' width='237' height='22'
onmouseover='makeVisible("_1_1_1_2_1_1_1_1_1_1_10_1_1_1_3")' onmouseout='makeHidden("_1_1_1_2_1_1_1_1_1_1_10_1_1_1_3")'/>
<text class='strong' x='5.5' y='20.5'>anchorUnits</text>
<text class='stronggreyitalic' x='86.5' y='20.5'>(type: AnchorUnitsEnum)</text>
<line class='connection' x1='-33.5' y1='15.5' x2='0.5' y2='15.5'/>
</g>

<g id='_1_1_1_2_1_1_1_1_1_1_10_1_1_1_4' class='box' transform='translate(1498,2118)'>
<rect class='shadow' x='5' y='10' width='195' height='22'/>
<rect class='boxelement' x='0.5' y='4.5' width='195' height='22'
onmouseover='makeVisible("_1_1_1_2_1_1_1_1_1_1_10_1_1_1_4")' onmouseout='makeHidden("_1_1_1_2_1_1_1_1_1_1_10_1_1_1_4")'/>
<text class='strong' x='5.5' y='20.5'>anchorXOffset</text>
<text class='stronggreyitalic' x='98.5' y='20.5'>(type: string)</text>
<line class='connection' x1='-33.5' y1='15.5' x2='0.5' y2='15.5'/>
</g>

<g id='_1_1_1_2_1_1_1_1_1_1_10_1_1_1_5' class='box' transform='translate(1498,2155)'>
<rect class='shadow' x='5' y='10' width='195' height='22'/>
<rect class='boxelement' x='0.5' y='4.5' width='195' height='22'
onmouseover='makeVisible("_1_1_1_2_1_1_1_1_1_1_10_1_1_1_5")' onmouseout='makeHidden("_1_1_1_2_1_1_1_1_1_1_10_1_1_1_5")'/>
<text class='strong' x='5.5' y='20.5'>anchorYOffset</text>
<text class='stronggreyitalic' x='98.5' y='20.5'>(type: string)</text>
<line class='connection' x1='-33.5' y1='15.5' x2='0.5' y2='15.5'/>
</g>

<g id='_1_1_1_2_1_1_1_1_1_1_10_1_1_1_6' class='box' transform='translate(1498,2192)'>
<rect class='shadow' x='5' y='10' width='201' height='22'/>
<rect class='boxelement' x='0.5' y='4.5' width='201' height='22'
 stroke-dasharray="4 4"
onmouseover='makeVisible("_1_1_1_2_1_1_1_1_1_1_10_1_1_1_6")' onmouseout='makeHidden("_1_1_1_2_1_1_1_1_1_1_10_1_1_1_6")'/>
<text class='strong' x='5.5' y='20.5'>fontSize</text>
<text class='stronggreyitalic' x='68.5' y='20.5'>(type: FontSizeEnum)</text>
<line class='connection' x1='-33.5' y1='15.5' x2='0.5' y2='15.5'/>
</g>

<g id='_1_1_1_2_1_1_1_1_1_1_10_1_1_1_7' class='box' transform='translate(1498,2229)'>
<rect class='shadow' x='5' y='10' width='141' height='22'/>
<rect class='boxelement' x='0.5' y='4.5' width='141' height='22'
onmouseover='makeVisible("_1_1_1_2_1_1_1_1_1_1_10_1_1_1_7")' onmouseout='makeHidden("_1_1_1_2_1_1_1_1_1_1_10_1_1_1_7")'/>
<text class='strong' x='5.5' y='20.5'>name</text>
<text class='stronggreyitalic' x='44.5' y='20.5'>(type: string)</text>
<line class='connection' x1='-33.5' y1='15.5' x2='0.5' y2='15.5'/>
</g>

<g id='_1_1_1_2_1_1_1_1_1_1_10_1_1_1_8' class='box' transform='translate(1498,2266)'>
<rect class='shadow' x='5' y='10' width='183' height='22'/>
<rect class='boxelement' x='0.5' y='4.5' width='183' height='22'
 stroke-dasharray="4 4"
onmouseover='makeVisible("_1_1_1_2_1_1_1_1_1_1_10_1_1_1_8")' onmouseout='makeHidden("_1_1_1_2_1_1_1_1_1_1_10_1_1_1_8")'/>
<text class='strong' x='5.5' y='20.5'>tabLabel</text>
<text class='stronggreyitalic' x='68.5' y='20.5'>(type: String500)</text>
<line class='connection' id='p_1_1_1_2_1_1_1_1_1_1_10_1_1_1_8' x1='-33.5' y1='-243.5' x2='-33.5' y2='15.5'/>
<path class='connection' d='M-33.5,15.5 L0.5, 15.5'/>
</g>

<g id='_1_1_1_2_1_1_1_1_1_1_11' class='box' transform='translate(1070,2325)'>
<rect class='shadow' x='5' y='10' width='273' height='22'/>
<rect class='boxelement' x='0.5' y='4.5' width='273' height='22'
 stroke-dasharray="4 4"
onmouseover='makeVisible("_1_1_1_2_1_1_1_1_1_1_11")' onmouseout='makeHidden("_1_1_1_2_1_1_1_1_1_1_11")'/>
<text class='strong' x='5.5' y='20.5'>deliveryMethod</text>
<text class='stronggreyitalic' x='104.5' y='20.5'>(type: DeliveryMethodEnum)</text>
<line class='connection' x1='-33.5' y1='15.5' x2='0.5' y2='15.5'/>
</g>

<g id='_1_1_1_2_1_1_1_1_1_1_12' class='box' transform='translate(1070,2362)'>
<rect class='shadow' x='5' y='10' width='153' height='22'/>
<rect class='boxelement' x='0.5' y='4.5' width='153' height='22'
 stroke-dasharray="4 4"
onmouseover='makeVisible("_1_1_1_2_1_1_1_1_1_1_12")' onmouseout='makeHidden("_1_1_1_2_1_1_1_1_1_1_12")'/>
<text class='strong' x='5.5' y='20.5'>status</text>
<text class='stronggreyitalic' x='56.5' y='20.5'>(type: string)</text>
<line class='connection' id='p_1_1_1_2_1_1_1_1_1_1_12' x1='-33.5' y1='-1373.5' x2='-33.5' y2='15.5'/>
<path class='connection' d='M-33.5,15.5 L0.5, 15.5'/>
</g>

<g id='_1_1_1_2_1_1_1_1_2' class='box' transform='translate(859,2498)'>
<rect class='shadow' x='5' y='10' width='87' height='22'/>
<rect class='boxelement' x='0.5' y='4.5' width='87' height='22'
 stroke-dasharray="4 4"
onmouseover='makeVisible("_1_1_1_2_1_1_1_1_2")' onmouseout='makeHidden("_1_1_1_2_1_1_1_1_2")'/>
<text class='strong' x='5.5' y='20.5'>carbonCopy</text>
<text x='62.5' y='45.5'>0..∞</text>
<line class='connection' id='p_1_1_1_2_1_1_1_1_2' x1='-33.5' y1='-815.5' x2='-33.5' y2='15.5'/>
<path class='connection' d='M-33.5,15.5 L0.5, 15.5'/>
<use x='86.5' y='9.5' xlink:href='#minus' id='s_1_1_1_2_1_1_1_1_2' onclick='show("_1_1_1_2_1_1_1_1_2")'/>
</g>

<g id='_1_1_1_2_1_1_1_1_2_1tb' class='box' transform='translate(991, 2443)'>
<rect class='boxtypeelement' x='-15.5' y='-20.5' width='319' height='168' stroke-dasharray='17 6'/>
<text class='biggrey' x='-5.5' y='-5.5'>type: CarbonCopyType</text>
</g>
<g id='_1_1_1_2_1_1_1_1_2_1' class='box' transform='translate(991,2498)'>
<rect class='boxcompositor' x='0.5' y='5.5' width='40' height='20' rx='9'/>
<circle cx='12.5' cy='15.5' r='3'/>
<circle cx='20.5' cy='15.5' r='3'/>
<circle cx='28.5' cy='15.5' r='3'/>
<line x1='4.5' y1='15.5' x2='36.5' y2='15.5'/>
<line class='connection' x1='-33.5' y1='15.5' x2='0.5' y2='15.5'/>
<use x='39.5' y='9.5' xlink:href='#minus' id='s_1_1_1_2_1_1_1_1_2_1' onclick='show("_1_1_1_2_1_1_1_1_2_1")'/>
</g>

<g id='_1_1_1_2_1_1_1_1_2_1_1' class='box' transform='translate(1076,2443)'>
<rect class='shadow' x='5' y='10' width='165' height='22'/>
<rect class='boxelement' x='0.5' y='4.5' width='165' height='22'
onmouseover='makeVisible("_1_1_1_2_1_1_1_1_2_1_1")' onmouseout='makeHidden("_1_1_1_2_1_1_1_1_2_1_1")'/>
<text class='strong' x='5.5' y='20.5'>email</text>
<text class='stronggreyitalic' x='50.5' y='20.5'>(type: String100)</text>
<line class='connection' x1='-33.5' y1='15.5' x2='0.5' y2='15.5'/>
</g>

<g id='_1_1_1_2_1_1_1_1_2_1_2' class='box' transform='translate(1076,2480)'>
<rect class='shadow' x='5' y='10' width='141' height='22'/>
<rect class='boxelement' x='0.5' y='4.5' width='141' height='22'
 stroke-dasharray="4 4"
onmouseover='makeVisible("_1_1_1_2_1_1_1_1_2_1_2")' onmouseout='makeHidden("_1_1_1_2_1_1_1_1_2_1_2")'/>
<text class='strong' x='5.5' y='20.5'>name</text>
<text class='stronggreyitalic' x='44.5' y='20.5'>(type: string)</text>
<line class='connection' x1='-33.5' y1='15.5' x2='0.5' y2='15.5'/>
</g>

<g id='_1_1_1_2_1_1_1_1_2_1_3' class='box' transform='translate(1076,2517)'>
<rect class='shadow' x='5' y='10' width='129' height='22'/>
<rect class='boxelement' x='0.5' y='4.5' width='129' height='22'
 stroke-dasharray="4 4"
onmouseover='makeVisible("_1_1_1_2_1_1_1_1_2_1_3")' onmouseout='makeHidden("_1_1_1_2_1_1_1_1_2_1_3")'/>
<text class='strong' x='5.5' y='20.5'>order</text>
<text class='stronggreyitalic' x='50.5' y='20.5'>(type: int)</text>
<line class='connection' x1='-33.5' y1='15.5' x2='0.5' y2='15.5'/>
</g>

<g id='_1_1_1_2_1_1_1_1_2_1_4' class='box' transform='translate(1076,2554)'>
<rect class='shadow' x='5' y='10' width='189' height='22'/>
<rect class='boxelement' x='0.5' y='4.5' width='189' height='22'
onmouseover='makeVisible("_1_1_1_2_1_1_1_1_2_1_4")' onmouseout='makeHidden("_1_1_1_2_1_1_1_1_2_1_4")'/>
<text class='strong' x='5.5' y='20.5'>carbonCopyId</text>
<text class='stronggreyitalic' x='92.5' y='20.5'>(type: string)</text>
<line class='connection' id='p_1_1_1_2_1_1_1_1_2_1_4' x1='-33.5' y1='-95.5' x2='-33.5' y2='15.5'/>
<path class='connection' d='M-33.5,15.5 L0.5, 15.5'/>
</g>

<g id='_1_1_1_2_1_1_2' class='box' transform='translate(642,2653)'>
<rect class='shadow' x='5' y='10' width='93' height='22'/>
<rect class='boxelement' x='0.5' y='4.5' width='93' height='22'
 stroke-dasharray="4 4"
onmouseover='makeVisible("_1_1_1_2_1_1_2")' onmouseout='makeHidden("_1_1_1_2_1_1_2")'/>
<text class='strong' x='5.5' y='20.5'>errorDetail</text>
<line class='connection' id='p_1_1_1_2_1_1_2' x1='-33.5' y1='-874.5' x2='-33.5' y2='15.5'/>
<path class='connection' d='M-33.5,15.5 L0.5, 15.5'/>
<use x='92.5' y='9.5' xlink:href='#minus' id='s_1_1_1_2_1_1_2' onclick='show("_1_1_1_2_1_1_2")'/>
</g>

<g id='_1_1_1_2_1_1_2_1tb' class='box' transform='translate(780, 2635)'>
<rect class='boxtypeelement' x='-15.5' y='-20.5' width='289' height='94' stroke-dasharray='17 6'/>
<text class='biggrey' x='-5.5' y='-5.5'>type: ErrorType</text>
</g>
<g id='_1_1_1_2_1_1_2_1' class='box' transform='translate(780,2653)'>
<rect class='boxcompositor' x='0.5' y='5.5' width='40' height='20' rx='9'/>
<circle cx='12.5' cy='15.5' r='3'/>
<circle cx='20.5' cy='15.5' r='3'/>
<circle cx='28.5' cy='15.5' r='3'/>
<line x1='4.5' y1='15.5' x2='36.5' y2='15.5'/>
<line class='connection' x1='-33.5' y1='15.5' x2='0.5' y2='15.5'/>
<use x='39.5' y='9.5' xlink:href='#minus' id='s_1_1_1_2_1_1_2_1' onclick='show("_1_1_1_2_1_1_2_1")'/>
</g>

<g id='_1_1_1_2_1_1_2_1_1' class='box' transform='translate(865,2635)'>
<rect class='shadow' x='5' y='10' width='141' height='22'/>
<rect class='boxelement' x='0.5' y='4.5' width='141' height='22'
onmouseover='makeVisible("_1_1_1_2_1_1_2_1_1")' onmouseout='makeHidden("_1_1_1_2_1_1_2_1_1")'/>
<text class='strong' x='5.5' y='20.5'>code</text>
<text class='stronggreyitalic' x='44.5' y='20.5'>(type: string)</text>
<line class='connection' x1='-33.5' y1='15.5' x2='0.5' y2='15.5'/>
</g>

<g id='_1_1_1_2_1_1_2_1_2' class='box' transform='translate(865,2672)'>
<rect class='shadow' x='5' y='10' width='159' height='22'/>
<rect class='boxelement' x='0.5' y='4.5' width='159' height='22'
 stroke-dasharray="4 4"
onmouseover='makeVisible("_1_1_1_2_1_1_2_1_2")' onmouseout='makeHidden("_1_1_1_2_1_1_2_1_2")'/>
<text class='strong' x='5.5' y='20.5'>message</text>
<text class='stronggreyitalic' x='62.5' y='20.5'>(type: string)</text>
<line class='connection' id='p_1_1_1_2_1_1_2_1_2' x1='-33.5' y1='-21.5' x2='-33.5' y2='15.5'/>
<path class='connection' d='M-33.5,15.5 L0.5, 15.5'/>
</g>


</svg>
